<svg xmlns="http://www.w3.org/2000/svg" width="330" height="240" viewBox="0 0 165 120" class="{{ include.class }}">
  <g fill-opacity="0.25">
    <circle cx="44" cy="30" r="30" fill="#e37222"/>
    <circle cx="135" cy="90" r="30" fill="#e37222"/>
    <circle cx="30" cy="85" r="30" fill="#a2ad00"/>
    <circle cx="132" cy="70" r="30" fill="#a2ad00"/>
    <g>
      <circle cx="48" cy="76" r="30" fill="#0065bd"/>
      <circle cx="68" cy="88" r="30" fill="#0065bd"/>
      <circle cx="90" cy="80" r="30" fill="#0065bd"/>
      <circle cx="66" cy="69" r="30" fill="#0065bd"/>
      <circle cx="88" cy="62" r="30" fill="#0065bd"/>
      <circle cx="108" cy="69" r="30" fill="#0065bd"/>
    </g>
  </g>
  <g>
    <circle cx="44" cy="30" r="3.5" fill="#e37222"/>
    <circle cx="135" cy="90" r="3.5" fill="#e37222"/>
    <circle cx="30" cy="85" r="3.5" fill="#a2ad00"/>
    <circle cx="132" cy="70" r="3.5" fill="#a2ad00"/>
    <g>
      <circle cx="48" cy="76" r="3.5" fill="#0065bd"/>
      <circle cx="68" cy="88" r="3.5" fill="#0065bd"/>
      <circle cx="90" cy="80" r="3.5" fill="#0065bd"/>
      <circle cx="66" cy="69" r="3.5" fill="#0065bd"/>
      <circle cx="88" cy="62" r="3.5" fill="#0065bd"/>
      <circle cx="108" cy="69" r="3.5" fill="#0065bd"/>
    </g>
  </g>
  <g>
    <g>
      <g>
        <line x1="134.4" y1="28.73" x2="163.6" y2="28.73" fill="none" stroke="#343a40"/>
        <rect x="134" y="26.13" width="0.8" height="5.2" fill="#343a40"/>
        <rect x="163.2" y="26.13" width="0.8" height="5.2" fill="#343a40"/>
      </g>
      <text transform="translate(146.76 26.6)" font-size="12" fill="#0065bd" font-family="RobotoMono-Italic, Roboto Mono, monospace" font-style="italic">ε</text>
    </g>
    <text transform="translate(100 13)" font-size="12"><tspan fill="#343a40" font-family="RobotoMono-Italic, Roboto Mono, monospace" font-style="italic" letter-spacing="-0.06em">minPts:</tspan><tspan x="57" y="0" fill="#0065bd" font-family="RobotoMono-Regular, Roboto Mono, sans-serif">3</tspan></text>
  </g>
</svg>
