<svg xmlns="http://www.w3.org/2000/svg" width="825" height="330" viewBox="0 0 550 220" class="{{ include.class }}">
  <g fill="none" stroke="#adb5bd">
    <line x1="5" y1="27.1" x2="116.6" y2="27.1"/>
    <line x1="5" y1="49.3" x2="116.6" y2="49.3"/>
    <line x1="5" y1="71.6" x2="116.6" y2="71.6"/>
    <line x1="5" y1="93.9" x2="116.6" y2="93.9"/>
    <line x1="5" y1="116.1" x2="116.6" y2="116.1"/>
    <line x1="5" y1="138.4" x2="116.6" y2="138.4"/>
    <line x1="5" y1="194.4" x2="116.6" y2="194.4"/>
    <line x1="147.1" y1="27.1" x2="258.8" y2="27.1"/>
    <line x1="147.1" y1="49.3" x2="258.8" y2="49.3"/>
    <line x1="147.1" y1="71.6" x2="258.8" y2="71.6"/>
    <line x1="147.1" y1="93.9" x2="258.8" y2="93.9"/>
    <line x1="147.1" y1="116.1" x2="258.8" y2="116.1"/>
    <line x1="147.1" y1="138.4" x2="258.8" y2="138.4"/>
    <line x1="147.1" y1="194.4" x2="258.8" y2="194.4"/>
    <line x1="287.4" y1="27.1" x2="399" y2="27.1"/>
    <line x1="287.4" y1="49.3" x2="399" y2="49.3"/>
    <line x1="287.4" y1="71.6" x2="399" y2="71.6"/>
    <line x1="287.4" y1="93.9" x2="399" y2="93.9"/>
    <line x1="287.4" y1="116.1" x2="399" y2="116.1"/>
    <line x1="287.4" y1="138.4" x2="399" y2="138.4"/>
    <line x1="287.4" y1="194.4" x2="399" y2="194.4"/>
    <line x1="429.8" y1="27.1" x2="541.5" y2="27.1"/>
    <line x1="429.8" y1="49.3" x2="541.5" y2="49.3"/>
    <line x1="429.8" y1="71.6" x2="541.5" y2="71.6"/>
    <line x1="429.8" y1="93.9" x2="541.5" y2="93.9"/>
    <line x1="429.8" y1="116.1" x2="541.5" y2="116.1"/>
    <line x1="429.8" y1="138.4" x2="541.5" y2="138.4"/>
    <line x1="429.8" y1="194.4" x2="541.5" y2="194.4"/>
  </g>
  <g fill="none" stroke="#adb5bd" stroke-dasharray="2 2">
    <line x1="116.7" y1="27.1" x2="116.6" y2="194.3"/>
    <line x1="94.4" y1="49.5" x2="94.4" y2="194.3"/>
    <line x1="71.8" y1="71.4" x2="71.8" y2="194.3"/>
    <line x1="49.5" y1="93.7" x2="49.5" y2="194.3"/>
    <line x1="27.1" y1="116" x2="27.1" y2="194.3"/>
    <line x1="5" y1="138.4" x2="5" y2="194.3"/>
    <line x1="258.9" y1="27.1" x2="258.8" y2="194.3"/>
    <line x1="254.5" y1="49.5" x2="254.5" y2="194.3"/>
    <line x1="243.7" y1="71.4" x2="243.7" y2="194.3"/>
    <line x1="224.7" y1="93.7" x2="224.7" y2="194.3"/>
    <line x1="194.8" y1="116" x2="194.8" y2="194.3"/>
    <line x1="147.1" y1="138.1" x2="147.1" y2="194.3"/>
    <line x1="399.1" y1="27.1" x2="399" y2="194.3"/>
    <line x1="345.6" y1="49.5" x2="345.6" y2="194.3"/>
    <line x1="314.2" y1="71.4" x2="314.2" y2="194.3"/>
    <line x1="299.1" y1="93.7" x2="299.1" y2="194.3"/>
    <line x1="291.4" y1="116" x2="291.4" y2="194.3"/>
    <line x1="287.4" y1="138.1" x2="287.4" y2="194.3"/>
    <line x1="541.6" y1="27.1" x2="541.5" y2="194.3"/>
    <line x1="533.8" y1="49.5" x2="533.8" y2="194.3"/>
    <line x1="488.6" y1="71.4" x2="488.6" y2="194.3"/>
    <line x1="481.4" y1="93.7" x2="481.4" y2="194.3"/>
    <line x1="446.1" y1="116" x2="446.1" y2="194.3"/>
    <line x1="429.8" y1="138.1" x2="429.8" y2="194.3"/>
  </g>
  <g fill="none" stroke="#e37222" stroke-linecap="round" stroke-width="2">
    <path d="M8.2,212.9a54,54,0,0,1,.5-37.1"/>
    <path d="M30.2,212.9a54,54,0,0,1,.5-37.1"/>
    <path d="M52.6,212.9a54,54,0,0,1,.5-37.1"/>
    <path d="M74.9,212.9a54,54,0,0,1,.5-37.1"/>
    <path d="M97.4,212.9a54,54,0,0,1,.5-37.1"/>
    <path d="M119.7,212.9a54,54,0,0,1,.5-37.1"/>
    <path d="M150.3,212.9a54,54,0,0,1,.5-37.1"/>
    <path d="M198,212.9a54,54,0,0,1,.5-37.1"/>
    <path d="M227.9,212.9a54,54,0,0,1,.5-37.1"/>
    <path d="M246.8,212.9a53.9,53.9,0,0,1,.5-37.1"/>
    <path d="M257.6,212.9a54,54,0,0,1,.5-37.1"/>
    <path d="M261.8,212.9a54,54,0,0,1,.5-37.1"/>
    <path d="M290.6,212.9a53.9,53.9,0,0,1,.5-37.1"/>
    <path d="M294.6,212.9a54,54,0,0,1,.5-37.1"/>
    <path d="M302.3,212.9a54,54,0,0,1,.5-37.1"/>
    <path d="M317.3,212.9a53.9,53.9,0,0,1,.5-37.1"/>
    <path d="M348.7,212.9a54,54,0,0,1,.5-37.1"/>
    <path d="M402.1,212.9a54,54,0,0,1,.5-37.1"/>
    <path d="M433,212.9a54,54,0,0,1,.5-37.1"/>
    <path d="M449.3,212.9a54,54,0,0,1,.5-37.1"/>
    <path d="M484.5,212.9a54,54,0,0,1,.5-37.1"/>
    <path d="M491.7,212.9a54,54,0,0,1,.5-37.1"/>
    <path d="M536.8,212.9a54,54,0,0,1,.5-37.1"/>
    <path d="M544.5,212.9a54,54,0,0,1,.5-37.1"/>
  </g>
  <g fill="none" stroke="#0065bd" stroke-linecap="round" stroke-width="3">
    <path d="M430,138.1c9.4-12.8,13-24.9,26.6-27.6s22.2-4.4,26.3-22.2c4.7-20.1,7.1-21.4,17.2-22.6,20.2-2.5,35.9-7.4,41.4-39.1"/>
    <path d="M399.1,27C325,54.8,296.9,68,287.3,138"/>
    <path d="M147.1,138.1c64.2-22,108.8-62,111.8-111"/>
    <path d="M116.7,27.2,5,138.3"/>
  </g>
  <g text-anchor="middle" font-size="0.8rem">
    <text transform="translate(60 16)">constant slope</text>
    <text transform="translate(200 16)">concave slope</text>
    <text transform="translate(343 16)">convex slope</text>
    <text transform="translate(485 16)">alternating slope</text>
  </g>
</svg>
