<?xml version="1.0" encoding="utf-8"?>
<svg version="1.1" id="svg12" xmlns:svg="http://www.w3.org/2000/svg"
	 xmlns="http://www.w3.org/2000/svg" xmlns:xlink="http://www.w3.org/1999/xlink" x="0px" y="0px" width="400px" height="300px"
	 viewBox="0 0 400 300" enable-background="new 0 0 400 300" xml:space="preserve">
<g transform="translate(60,0)">
	<g id="Grid">
		<path fill="#E5E3DA" stroke="#E5E3DA" stroke-width="2" d="M85,45v195"/>
		<path fill="#E5E3DA" stroke="#E5E3DA" stroke-width="2" d="M140,45v195"/>
		<path fill="#E5E3DA" stroke="#E5E3DA" stroke-width="2" d="M195,45v195"/>
		<path fill="#E5E3DA" stroke="#E5E3DA" stroke-width="2" d="M250,45v195"/>
		<path fill="#E5E3DA" stroke="#E5E3DA" stroke-width="2" d="M30,45v195"/>
		<path fill="#E5E3DA" stroke="#E5E3DA" stroke-width="2" d="M12,170h253.4"/>
		<path fill="#E5E3DA" stroke="#E5E3DA" stroke-width="2" d="M12,115.9h253"/>
		<path fill="#E5E3DA" stroke="#E5E3DA" stroke-width="2" d="M12,61.8h253"/>
		<path fill="#E5E3DA" stroke="#E5E3DA" stroke-width="2" d="M12,224.1h253"/>
	</g>
	<g id="Arrows">
		<line id="Green" fill="none" stroke="#A2AD00" stroke-width="5" stroke-linecap="round" x1="140" y1="226.1" x2="108.3" y2="148.5"/>
		<polygon fill="#A2AD00" points="116.9,150.3 99.7,128.1 103.5,155.9"/>
		<line id="Blue" fill="none" stroke="#0065BD" stroke-width="5" stroke-linecap="round" x1="140" y1="226.1" x2="186.9" y2="137.6"/>
		<polygon fill="#0065BD" points="178.2,138.6 197.1,117.9 191.1,145.3"/>
		<line id="Orange" fill="none" stroke="#E37222" stroke-width="5" stroke-linecap="round" x1="140" y1="226.1" x2="140" y2="113"/>
		<polygon fill="#E37222" points="133.6,117.9 140.8,90.8 148.1,117.9"/>
	</g>
	<circle fill="#FFFFFF" stroke="#000000" stroke-width="5" stroke-miterlimit="10" cx="140" cy="224.1" r="8.5"/>
</g>
</svg>
