<?xml version="1.0" encoding="UTF-8" standalone="no"?>
<svg
   id="world-svg"
   viewBox="0 0 150 120"
   class="{{ include.class }}"
   version="1.1"
   sodipodi:docname="world.svg"
   inkscape:version="1.2.1 (9c6d41e410, 2022-07-14)"
   xmlns:inkscape="http://www.inkscape.org/namespaces/inkscape"
   xmlns:sodipodi="http://sodipodi.sourceforge.net/DTD/sodipodi-0.dtd"
   xmlns:xlink="http://www.w3.org/1999/xlink"
   xmlns="http://www.w3.org/2000/svg"
   xmlns:svg="http://www.w3.org/2000/svg">
  <defs
     id="defs66">
    <rect
       x="159.32203"
       y="109.11017"
       width="0.84745763"
       height="3.8135593"
       id="rect2047" />
    <linearGradient
       id="linearGradient903"
       inkscape:swatch="solid">
      <stop
         style="stop-color:#ffffff;stop-opacity:1;"
         offset="0"
         id="stop901" />
    </linearGradient>
    <linearGradient
       inkscape:collect="always"
       xlink:href="#linearGradient903"
       id="linearGradient905"
       x1="55.817852"
       y1="15.115573"
       x2="57.829174"
       y2="15.115573"
       gradientUnits="userSpaceOnUse"
       gradientTransform="matrix(0.99521552,0,0,1.0071089,0.26719029,11.885757)" />
  </defs>
  <sodipodi:namedview
     id="namedview64"
     pagecolor="#ffffff"
     bordercolor="#000000"
     borderopacity="0.25"
     inkscape:showpageshadow="2"
     inkscape:pageopacity="0.0"
     inkscape:pagecheckerboard="0"
     inkscape:deskcolor="#d1d1d1"
     showgrid="false"
     inkscape:zoom="3.337544"
     inkscape:cx="127.63877"
     inkscape:cy="49.737172"
     inkscape:window-width="1920"
     inkscape:window-height="1094"
     inkscape:window-x="-11"
     inkscape:window-y="-11"
     inkscape:window-maximized="1"
     inkscape:current-layer="world-svg" />
  <g
     stroke="#e5e3da"
     id="g1385"
     transform="matrix(0.22577112,0,0,0.23362554,-2.426665,13.030627)">
    <ellipse
       cx="344.82001"
       cy="211.42"
       rx="319.64999"
       ry="192.55"
       fill="none"
       stroke-width="2"
       id="ellipse1295" />
    <path
       d="m 137.49,86.206 -2.045,2.045 -6.4497,2.045 -4.562,0.62924 -4.562,2.9889 -4.562,1.5731 -3.7754,1.4158 -1.5731,-0.94386 2.5169,-1.7304 3.6181,-1.2585 1.8877,-0.94386 0.78655,-0.94386 -1.8877,-0.62924 -1.8877,0.78654 -0.15731,-1.8877 -0.94385,-1.5731 0.62923,-1.1012 2.6743,-1.2585 3.1462,-0.94386 3.9327,-0.78655 1.5731,-1.7304 -2.045,-0.62924 -1.8877,-1.5731 1.1012,-2.2023 2.517,0.31462 h 1.8877 l 3.3035,0.31462 1.8877,-0.94385 -1.7304,-1.7304 -0.1573,-1.5731 0.94385,-1.1012 2.8316,-0.15731 2.2023,-1.7304 2.517,-0.31462 1.4158,-0.15731 2.2023,-0.62924 4.4047,-0.15731 h 6.4497 l 3.6181,0.47193 h 3.9327 l 2.9889,1.2585 2.9889,0.78655 h 2.6743 l 5.8204,-0.62924 3.7754,-1.4158 4.4047,0.78655 5.3485,1.4158 2.6743,0.15731 4.09,2.8316 5.5058,-1.4158 h 5.6631 l 5.3485,0.31462 1.5731,-2.045 3.6181,-0.62924 1.4158,1.4158 v -3.4608 l 3.4608,-2.045 2.6743,-2.3596 3.9327,-0.94386 0.78655,0.62924 -0.94386,1.5731 -4.09,2.5169 -0.62924,2.6743 h 1.5731 l 0.31462,2.9889 1.8877,-0.62924 1.5731,-1.5731 -1.1012,-3.9327 1.8877,-1.8877 1.2585,-0.78654 2.8316,-0.62924 3.3035,1.1012 4.562,0.78655 0.94386,-2.2023 1.8877,-0.62924 1.4158,3.1462 5.3485,2.6743 0.78655,3.3035 -0.31462,1.1012 1.8877,0.94386 0.78655,2.5169 -2.2023,2.045 -2.6743,-1.2585 -2.045,-2.3596 v 1.8877 l 1.5731,1.5731 0.47193,2.2023 -0.78655,1.2585 -2.517,0.31462 -1.7304,1.7304 h -2.6743 l -2.2023,-2.3596 -1.4158,-1.5731 -4.2474,-1.2585 0.31461,-1.2585 3.6181,0.15731 4.2474,-1.7304 1.1012,-2.9889 -2.8316,-2.045 -3.9327,-1.4158 h -2.8316 l -0.15731,2.8316 -2.2023,2.3596 -2.045,0.94386 h -1.5731 l -1.4158,1.1012 1.2585,2.2023 1.2585,1.4158 v 1.4158 h -2.2023 l -1.2585,-1.7304 -1.4158,1.4158 -2.045,0.31462 -0.15731,-1.5731 0.62923,-2.3596 -2.6742,1.4158 -2.8316,1.5731 -5.6631,2.3596 -3.9327,1.8877 -2.6743,3.4608 0.78655,2.3596 0.47193,1.5731 2.045,1.2585 2.045,-0.15731 0.94386,1.7304 3.9327,1.5731 h 2.045 l -1.1012,1.8877 -0.94386,4.562 2.3596,-0.31462 2.3596,-1.2585 v -2.045 l 0.31462,-2.8316 2.3596,-0.62924 3.6181,-2.045 1.7304,-1.2585 -0.62923,-1.7304 -0.15731,-2.8316 0.94385,-0.62924 0.78655,-1.7304 1.1012,-2.2023 2.517,-1.2585 h 3.1462 l 2.2023,1.1012 0.94386,2.6743 0.15731,2.3596 1.8877,1.4158 2.517,-1.1012 1.4158,-2.6743 1.5731,0.47193 1.4158,2.6743 0.15731,3.1462 0.15731,3.3035 2.6743,2.3596 1.7304,2.8316 -0.47193,2.8316 -1.4158,2.3596 2.045,0.31462 -0.15731,2.2023 0.31462,2.6743 -0.47193,1.8877 -4.09,-1.4158 h -3.6181 l -0.62924,-2.2023 2.517,-2.8316 3.1462,-3.7754 -2.3596,0.15731 -2.6743,1.8877 -2.3596,0.94386 -4.2474,-0.47193 -3.3035,0.15731 -1.5731,0.31462 0.31462,1.8877 3.3035,0.15731 -0.1573,1.7304 -0.78655,2.2023 0.15731,1.8877 1.5731,1.1012 1.5731,-0.31462 v 0.62924 l -2.517,1.5731 -1.5357,0.0569 -0.77864,1.0567 -1.0011,0.77864 -1.3348,0.72303 0.11123,-1.7798 -0.27808,-1.3348 -1.2236,0.61179 -1.6129,0.61179 -2.5584,0.50056 -1.446,0.83426 -1.2792,2.2247 -0.44494,1.5017 -1.3348,1.0567 -2.1691,0.3337 c 0,0 -1.7798,0.83426 -2.0022,0.88988 -0.22247,0.0556 -2.5028,1.9466 -2.5028,1.9466 l -1.2792,1.5573 -1.6129,1.7241 -1.6685,2.1691 0.77865,3.1146 -1.891,1.2792 -2.8365,1.891 -7.5392,5.1523 0.78654,4.562 0.15731,5.5058 -2.6743,1.7304 -0.47192,-3.6181 -1.8877,-4.2474 -4.4047,-2.6742 -3.9327,-0.47193 -0.78655,3.1462 -2.5169,0.62924 -2.3596,-1.2585 -4.4047,0.47193 -3.7754,3.4608 -1.8877,2.9889 v 2.517 l -0.78655,2.2023 -0.47192,4.562 0.78654,2.517 1.5731,2.6743 3.7754,1.4158 3.6181,-1.1012 1.8877,-3.4608 1.7304,-1.7304 1.7304,-1.1012 2.3596,0.94386 0.15731,1.5731 -0.94386,1.4158 -1.2585,2.045 -0.78655,1.8877 -0.31462,2.045 -0.62923,1.4158 1.8877,0.78655 h 1.8877 l 2.517,-0.15731 c 2.045,3.4608 2.045,3.9327 2.045,3.9327 l -0.78654,3.7754 0.15731,3.9327 2.045,1.7304 3.4608,-0.78654 2.6743,0.78654 4.156,-2.8141 4.8943,-0.44494 3.5595,-1.7798 5.3393,1.3348 2.6696,3.1146 5.7842,-2.2247 2.2247,2.2247 2.6696,4.0044 6.2291,3.1146 3.5595,1.3348 4.8943,6.2291 4.0044,6.2291 8.0089,3.5595 6.2291,0.88988 5.7842,4.0044 4.4494,6.2291 -5.3393,7.119 -3.5595,7.119 -0.44494,9.3437 -1.3348,5.7842 -6.6741,3.5595 -5.3393,4.4494 0.44494,6.2291 -3.5595,5.3392 -5.3393,5.3393 -3.5595,1.7798 1.3348,4.0044 -4.0044,3.1146 -1.3348,4.0044 -3.1146,4.8943 -0.88987,5.3392 4.4494,0.44494 -1.7798,4.4494 -1.3348,5.3393 4.8943,4.0044 v 2.6696 l -5.3393,-3.5595 -5.7842,0.44494 -5.7842,-11.123 v -9.7886 l -4.4494,-6.2291 -0.44494,-12.458 -0.88988,-12.903 -0.44494,-7.119 v -11.568 l -4.4494,-4.4494 -9.7886,-6.2291 -2.6696,-9.3437 -4.8943,-9.3437 1.7798,-11.568 4.8943,-4.4494 1.7798,-7.564 -2.2247,-0.44494 -1.936,-0.29814 -2.7136,1.2585 -3.6181,-2.2023 -2.2417,-2.9102 -4.1736,-4.0791 -6.8965,-3.1146 -3.5595,-3.5595 h -4.6718 l -7.7864,-3.337 -3.5595,-4.2269 -1.7798,-6.6741 -2.4472,-4.8943 -1.5573,-4.4494 -3.1146,-7.564 -1.1124,-1.3348 -1.3348,1.1124 v 3.5595 l 2.8921,4.0044 v 4.0044 l 1.1124,2.8921 -0.66741,1.5573 -2.6696,-4.8943 -2.2247,-2.4472 v -4.2269 l -1.7798,-4.8943 -0.6674,-2.4472 -1.5573,-3.337 -1.7798,-1.1123 0.44494,-11.346 3.782,-6.0067 5.1168,-6.2291 -0.44494,-4.2269 -1.1124,-2.8921 1.3348,-4.0044 0.22247,-5.5617 v -4.4494 l -2.0022,-3.1146 -3.337,-1.1123 z"
       fill="#e5e3da"
       id="path1297" />
    <path
       d="m 188.38,68.508 -0.70789,-2.7529 4.1687,-1.4158 3.8541,-1.3371 3.3822,0.07865 2.7529,1.2585 0.8652,1.9664 5.7418,0.15731 2.7529,-0.8652 1.2585,3.8541 -0.94386,2.045 -4.7979,0.78655 h -6.0564 l -3.9327,0.47193 -3.2248,-1.6517 0.94386,-2.1237 -0.8652,-1.1798 -2.7529,0.62924 z"
       fill="#e5e3da"
       id="path1299" />
    <path
       d="m 200.81,60.092 3.6181,-2.1237 3.5395,1.5731 -4.2474,1.8091 -2.8316,0.23596 z"
       fill="#e5e3da"
       id="path1301" />
    <path
       d="m 204.27,62.688 3.3035,-1.4158 2.281,-1.1012 1.5731,0.94386 1.6517,0.39327 1.6518,-0.70789 1.8091,-0.07865 0.55058,1.3371 v 0.8652 l -1.9664,0.23596 -2.1237,0.23596 -1.4158,0.70789 h -1.8091 -2.7529 c -0.31461,0 -2.281,-0.23596 -2.281,-0.23596 z"
       fill="#e5e3da"
       id="path1303" />
    <path
       d="m 213.7,58.126 1.6518,-0.94386 2.5956,0.70789 -0.78654,1.1012 -2.2023,0.15731 z"
       fill="#e5e3da"
       id="path1305" />
    <path
       d="m 216.61,66.778 2.045,-1.7304 1.1798,-0.62924 1.6517,-0.15731 0.78655,0.47193 -0.70789,1.6517 -1.2585,1.1798 -2.7529,1.4158 -0.8652,-1.1012 z"
       fill="#e5e3da"
       id="path1307" />
    <path
       d="m 219.29,60.328 0.94386,-1.1012 1.4944,1.3371 v 1.4158 h -2.281 l 0.0787,-1.1798 z"
       fill="#e5e3da"
       id="path1309" />
    <path
       d="m 222.99,61.115 2.9889,-0.94386 1.4944,0.70789 c 0,0 -0.94386,1.4944 -1.4944,1.4944 -0.55054,0 -1.6518,0.39327 -1.6518,0.39327 z"
       fill="#e5e3da"
       id="path1311" />
    <path
       d="m 224.87,56.946 c 0,0 1.5731,-1.4158 2.045,-1.0225 0.47193,0.39327 1.6518,2.4383 1.6518,2.4383 l -1.3371,0.78655 -2.3596,-1.5731 v -0.15731 z"
       fill="#e5e3da"
       id="path1313" />
    <path
       d="m 231.09,57.497 1.7304,-0.55058 1.1798,1.1798 -1.1798,0.55058 z"
       fill="#e5e3da"
       id="path1315" />
    <path
       d="m 228.73,60.564 1.6518,-1.3371 0.8652,0.70789 -0.8652,0.70789 z"
       fill="#e5e3da"
       id="path1317" />
    <path
       d="m 227.94,62.452 c 0,0 0.31461,-1.3371 0.70789,-1.2585 0.39327,0.07865 1.1798,1.0225 1.1798,1.0225 0,0 0.39327,0.78655 0,0.78655 -0.39328,0 -1.8877,-0.55058 -1.8877,-0.55058 z"
       fill="#e5e3da"
       id="path1319" />
    <path
       d="m 232.42,61.587 2.7529,-1.5731 1.7304,1.1012 2.517,0.62924 2.9889,0.23596 2.7529,0.62924 -2.281,0.94386 -3.3035,0.47193 c 0,0 -1.1012,0.07865 -1.809,-0.15731 -0.7079,-0.23597 -3.7754,-1.0225 -3.7754,-1.0225 z"
       fill="#e5e3da"
       id="path1321" />
    <path
       d="m 235.65,56.081 2.517,-1.6517 1.8091,-0.70789 1.0225,0.31462 1.6518,0.62924 1.4158,0.47193 0.31462,0.94386 -0.31462,1.1798 -2.045,0.23596 -2.1237,0.47193 h -2.2023 l -0.78654,-0.15731 z"
       fill="#e5e3da"
       id="path1323" />
    <path
       d="m 239.38,60.289 6.8965,-2.2247 0.22246,-2.8921 -0.44493,-2.8921 h 5.5617 l 6.0067,-0.44494 9.5662,0.22247 2.0022,0.44494 -1.1123,1.3348 -4.0044,0.44494 -3.1146,1.3348 -5.7842,1.5573 -5.7842,1.1123 c 0,0 -2.8921,2.2247 -3.782,2.2247 -0.88988,0 -3.5595,0.22247 -3.5595,0.22247 z"
       fill="#e5e3da"
       id="path1325" />
    <path
       d="m 256.73,60.289 3.337,-2.4472 4.4494,-0.44494 5.3392,-0.88988 2.2247,-1.7798 2.6696,-1.3348 6.4516,-1.1123 9.7886,-0.22247 8.4538,-0.22247 8.0089,0.44494 5.5617,-0.22247 3.782,1.3348 6.8966,-1.1123 v 2.0022 l -4.0044,1.1123 -3.5595,2.0022 -2.4472,2.8921 -1.7798,2.2247 -2.6696,2.2247 h -2.4472 l -1.7798,1.7798 3.1146,0.22247 0.44492,1.3348 -1.5573,2.4472 -4.0044,2.4472 -4.2269,1.3348 -3.5595,0.22247 -3.337,2.4472 -4.0044,0.66741 -5.1168,0.22247 -2.2247,1.1123 -2.4472,4.2269 -1.7798,3.782 -3.5595,0.22247 -3.337,-1.1123 -1.7798,-2.4472 -0.88988,-2.8921 -0.44492,-3.1146 1.3348,-2.8921 3.337,-5.3393 -0.44495,-2.8921 -2.6696,-5.3393 -1.7798,-1.3348 h -2.8921 l -2.4472,0.44494 z"
       fill="#e5e3da"
       id="path1327" />
    <path
       d="m 305,82.536 -1.5573,-3.782 c 0,0 0.44493,-2.0022 1.7798,-1.7798 1.3348,0.22247 5.1168,0.88988 5.1168,0.88988 l 5.1168,-0.22247 1.1123,0.66741 v 1.5573 l -5.1168,1.3348 -4.4494,1.3348 z"
       fill="#e5e3da"
       id="path1329" />
    <path
       d="m 192.21,162.62 2.2247,-1.7798 4.2269,-0.44494 3.5595,2.6696 3.782,3.337 0.44494,0.66741 -2.4472,1.7798 -1.7798,-2.2247 -4.0044,-2.4472 -3.1146,-1.3348 -1.5573,0.66741 h -1.7798 z"
       fill="#e5e3da"
       id="path1331" />
    <path
       d="m 207.12,170.19 2.8921,-0.88988 0.44494,-1.3348 h 3.1146 l 3.5595,1.5573 0.66741,1.7798 -5.3393,0.22247 -4.6718,0.22247 z"
       fill="#e5e3da"
       id="path1333" />
    <path
       d="m 218.9,170.92 0.39327,-0.90453 1.5338,0.15731 0.58991,0.66856 -0.47193,1.2192 -1.0618,0.39327 -0.47193,-0.4326 z"
       fill="#e5e3da"
       id="path1335" />
    <path
       d="m 199.78,383.09 -2.2247,-5.7842 h -4.8943 l -1.3348,-1.7798 -6.2291,-2.2247 -5.7842,3.1145 -1.7798,-2.6696 -2.6696,-1.3348 11.123,-2.6696 12.903,-1.7798 11.123,-1.7797 13.793,1.7797 h 7.5639 l -6.2291,-3.5595 6.6741,-1.3348 5.7842,0.88987 4.8943,1.3348 8.0089,1.3348 4.0044,-3.1146 0.44493,-4.4494 6.2291,-0.44495 -0.44494,-5.3392 4.4494,-4.0044 4.8943,-1.3348 1.3348,2.6696 -6.2291,3.5595 7.119,4.4494 0.44495,6.2291 0.88987,2.6696 -6.6741,4.0044 2.6696,2.2247 5.3392,1.3348 6.6741,1.7798 14.683,2.2247 8.4538,-2.2247 -2.2247,-1.7798 -7.119,-0.44494 -5.3393,0.44494 -3.5595,-3.5595 8.0089,-0.44493 h 11.123 l 4.0044,-1.3348 5.7842,-4.0044 9.7886,-3.1146 7.119,-2.6696 h 10.234 l 9.3437,-1.7798 7.5639,1.7798 9.3437,2.2247 5.3393,-3.1146 7.119,0.44492 15.128,-4.4494 10.234,-0.44495 5.7842,1.3348 7.564,0.88987 -5.7842,3.5595 0.44495,3.1145 7.119,-3.1145 7.5639,-2.2247 8.0089,-4.0044 4.0044,0.88987 8.8988,-1.7797 3.5595,-2.2247 8.0089,1.7798 4.4494,0.88987 5.7842,-0.88987 8.0089,0.88987 4.8943,0.44495 4.8943,-0.88987 5.7842,0.44492 8.0089,2.2247 8.8988,1.7797 5.7842,1.7798 3.5595,1.7798 1.3348,2.2247 -4.8943,3.1146 -10.679,4.0044 4.4494,0.88988 c 0,0 -3.5595,0 -6.2291,0.8899 -2.6696,0.88987 -8.4538,2.6696 -8.4538,2.6696 l -4.0044,1.3348 4.8943,1.7798 0.88988,0.88988 -10.679,4.0044 -35.595,10.234 -43.604,6.6741 -50.723,3.1146 -38.265,-0.44495 -41.379,-3.5595 -30.256,-4.8943 -28.476,-5.7842 z"
       fill="#e5e3da"
       id="path1337" />
    <path
       d="m 517.24,126.81 -2.8921,2.0022 1.1124,2.6696 2.8921,1.3348 3.1146,-0.88988 2.0022,1.3348 -2.4472,1.3348 -1.1123,3.1146 2.4472,2.6696 3.5595,6.2291 0.44494,4.4494 -2.4472,6.6741 -3.782,4.2269 -5.1168,2.6696 -5.1168,1.3348 h -4.8943 l -0.88988,3.1146 0.22247,2.6696 3.1146,2.8921 2.6696,2.8921 2.2247,3.1146 -2.2247,4.6718 -2.8921,4.2269 -2.2247,0.88987 -5.3393,-5.1168 -2.4472,-1.5573 -0.88987,2.2247 1.3348,4.6718 2.4472,3.5595 2.4472,6.4516 0.66741,3.782 -2.4472,1.1123 2.8921,4.0044 2.4472,5.3392 v 4.4494 l -4.2269,0.22247 -3.337,-5.3393 -2.8921,-8.0089 -6.2291,-6.6741 v -3.337 h 1.7798 l 2.8921,4.6718 3.782,3.337 1.5573,-0.44494 -1.1123,-4.2269 -1.1124,-2.2247 -2.4472,-4.2269 -1.7798,-3.1146 -0.22247,-5.7842 -0.22246,-4.8943 -1.7798,-3.5595 -1.5573,-1.7798 -2.2247,2.2247 -1.1123,-0.44494 -0.22247,-2.2247 -1.5573,-3.5595 -3.337,-4.0044 -2.4472,-2.6696 h -2.2247 l -2.6696,1.5573 -2.4472,3.337 -4.0044,4.2269 -3.5595,4.0044 -1.5573,6.6741 0.6674,6.4516 -4.6718,2.2247 -1.5573,-4.8943 -4.2269,-9.5662 -2.4472,-10.011 -1.1123,-4.4494 -2.6696,4.0044 -2.6696,-2.6696 -2.8921,-4.0044 -3.337,-3.5595 h -4.6718 l -5.5617,0.66741 -5.3393,-3.782 -2.6696,0.66741 -2.4472,-0.44494 -2.6696,-3.5595 -3.782,-3.5595 -2.6696,2.0022 1.1123,2.6696 3.337,2.8921 1.7798,3.5595 2.6696,2.4472 2.4472,-2.2247 3.1146,-2.4472 0.44494,3.337 4.0044,1.5573 1.5573,3.1146 -2.0022,4.6718 -4.6718,5.5617 -7.3415,4.2269 -5.1168,0.66741 -5.5617,2.6696 -1.7798,-2.4472 -2.8921,-8.6763 -1.7798,-2.2247 -2.6696,-3.1146 -0.66741,-4.2269 -2.6696,-4.0044 -4.8943,-6.2291 -0.44494,2.8921 0.44494,4.0044 3.5595,4.8943 2.0022,4.8943 0.44494,4.2269 2.4472,1.1124 1.5573,4.2269 3.337,2.2247 0.88987,3.5595 3.1146,3.5595 5.1168,-0.22246 5.3393,-2.2247 2.4472,0.6674 -1.3348,6.4516 -3.337,6.0067 -7.7864,10.011 -8.2314,7.7864 -2.0022,6.4516 2.0022,6.4516 2.2247,4.6718 -1.5573,9.1212 -3.782,1.7798 -3.1146,2.2247 -2.6696,3.5595 2.0022,6.4516 -0.22246,2.4472 -2.8921,0.88987 -1.5573,0.44494 -1.1124,1.3348 v 4.4494 l -2.0022,3.337 -3.5595,4.2269 -2.4472,3.5595 -5.5617,1.1124 h -8.2314 l -2.6696,-2.4472 0.66741,-2.6696 -1.3348,-3.5595 -1.5573,-4.4494 -1.1123,-2.2247 -0.88988,-5.5617 -1.5573,-5.1168 -2.0022,-4.4494 -1.3348,-6.2291 0.44493,-4.2269 1.1124,-4.4494 1.7798,-4.0044 -0.22247,-2.6696 -2.4472,-5.3393 -4.4494,-10.011 -0.22247,-6.6741 1.7798,-3.337 -2.8921,-1.7798 -3.337,0.66741 -2.4472,-1.3348 -1.1124,-0.88987 -2.6696,-1.1124 -3.782,2.2247 -5.3392,1.7798 -4.8943,-0.88987 -4.0044,1.3348 -3.5595,-3.1146 -3.5595,-2.4472 -2.8921,-3.337 -1.5573,-4.0044 -2.8921,-2.2247 v -2.8921 l -0.66741,-4.2269 0.88987,-3.5595 0.66741,-3.337 -0.44495,-3.782 0.22246,-6.0067 3.1146,-4.6718 2.2247,-2.4472 4.8943,-4.0044 1.1124,-2.8921 2.4472,-4.8943 3.1146,-3.5595 1.5573,-1.7798 3.1146,0.22247 3.5595,0.22247 3.5595,-2.6696 4.2269,-1.3348 h 4.8943 l 5.3393,-0.22247 h 1.7798 l 1.1124,3.1146 -1.1124,1.7798 0.66741,2.0022 3.1146,2.6696 3.1146,-1.3348 1.1123,3.337 3.1146,1.3348 2.4472,0.44494 1.1124,-0.66741 1.5573,-2.8921 2.4472,-1.1123 3.1145,1.3348 2.8921,1.7798 4.8943,0.22247 2.4472,-1.5573 3.5595,1.7798 2.2247,-0.22247 0.44495,-3.782 1.3348,-4.0044 v -2.8921 h -2.2247 l -3.782,0.88988 h -2.6696 l -3.337,-0.88988 -3.1146,-3.1146 -0.44495,-3.5595 -2.4472,-1.1123 -0.66741,2.2247 -0.66742,3.337 -0.66738,2.2247 -2.2247,0.22247 -0.88987,-2.0022 -2.4472,-4.2269 -1.7798,-3.782 -4.2269,-4.8943 -4.2269,-2.6696 -2.0022,0.66741 0.66739,1.7798 3.337,3.337 3.3371,2.2247 2.2247,2.0022 0.66741,0.88987 -0.22246,0.44494 -2.2247,-0.88987 0.22246,2.0022 v 1.5573 l -1.7797,2.0022 -2.2247,0.88988 -1.7798,-0.44494 -1.1123,-2.0022 2.4472,-0.22246 1.3348,-1.5573 v -1.5573 l -1.5573,-0.88987 -2.8921,-3.1146 -3.1146,-2.6696 -2.4472,-2.4472 -2.4472,1.5573 -0.88987,0.6674 h -4.0044 l -1.1123,1.7798 -1.3348,2.6696 -2.2247,1.5573 -0.66741,2.4472 -3.1145,4.0044 -6.0067,1.5573 -2.4472,-0.66741 -2.4472,-1.3348 -1.1123,-5.3393 0.66739,-2.0022 0.22249,-2.0022 1.5573,-2.8921 2.6696,-1.3348 3.5595,0.22247 2.6696,0.44494 2.0022,-1.7798 0.66741,-2.6696 -3.1146,-2.2247 -2.4472,-2.6696 v -0.66741 l 3.5595,-0.88987 3.782,-0.88988 3.5595,-1.7798 2.6696,-3.782 2.8921,-1.1124 3.5595,-1.3348 -0.66741,-2.6696 -0.88987,-2.4472 2.2247,-2.2247 1.7798,0.22247 -0.44495,1.7798 -0.22246,1.7798 v 1.3348 l 1.5573,-0.44494 2.2247,-1.7798 v -1.1123 l -1.5573,-2.0022 -1.3348,-1.5573 -4.4494,0.88988 h -2.0022 l -0.44492,-2.4472 -1.1124,-4.4494 1.7798,-2.4472 4.2269,-0.66741 5.7842,-4.6718 4.4494,-5.5617 4.8943,-1.5573 4.0044,-1.3348 5.7842,1.5573 4.4494,1.3348 4.2269,1.1123 5.1168,1.7798 0.22246,1.7798 -3.337,0.22247 -4.0044,1.5573 1.1123,1.3348 h 3.5595 l 2.6696,-0.66741 2.4472,-1.3348 1.1124,-1.3348 -0.22249,-2.4472 1.5573,-0.22247 1.7798,1.3348 0.44495,0.66741 2.0022,-0.44494 4.0044,-2.2247 h 4.6718 l 4.6718,0.22247 1.7798,-1.1123 2.8921,-0.66741 2.8921,1.1123 h 2.2247 l -1.5573,-1.7798 -0.44492,-2.0022 -0.22249,-2.6696 1.7798,-0.66741 3.1146,0.88988 0.66738,1.5573 h 2.8921 l 4.8943,-0.44494 4.4494,-3.337 4.0044,-2.2247 6.0066,-1.1123 4.6719,-2.0022 5.3392,0.44494 6.4516,1.3348 2.8921,0.22247 1.5573,0.66741 -2.2247,2.4472 v 1.3348 l 3.1146,-0.88988 3.5595,-0.44494 2.8921,0.44494 6.4516,1.5573 h 6.6741 l 4.0044,1.7798 2.2247,0.88988 7.3415,0.44494 2.0022,-2.0022 h 7.3415 l 6.6741,0.88988 9.1212,1.5573 9.7887,2.2247 h 8.2313 l 8.2314,0.44494 10.234,2.2247 11.568,3.5595 2.8921,3.337 h -5.7842 l -4.6719,0.66741 3.782,2.0022 -2.0022,2.0022 -3.5595,0.44494 -0.8899,2.2247 -3.1146,0.44494 -4.8943,1.1123 0.44495,2.2247 3.5595,1.5573 2.0022,1.1123 0.44495,5.1168 v 4.0044 l -0.22249,1.3348 -1.7798,0.44493 -2.6696,-1.7798 -3.782,-4.4494 -3.337,-4.4494 -0.44495,-3.1146 1.5573,-3.5595 v -2.0022 l -0.22246,-0.22247 -1.1123,0.66741 -2.0022,0.44494 -3.1146,-1.5573 h -1.3348 l -0.66741,2.0022 1.3348,1.7798 -1.7798,1.3348 -2.4472,-0.66741 h -3.1146 l -5.1168,-0.44494 h -2.8921 l -1.7798,2.2247 -1.5573,3.5595 -0.22246,3.782 5.1168,0.22247 5.1168,1.5573 0.66738,-1.7797 1.5573,-1.3348 4.2269,4.4494 3.5595,4.8943 0.88987,1.7798 v 1.1123 l -0.66741,1.7798 2.0022,2.2247 0.22246,2.8921 -2.2247,-1.5573 -2.6696,-3.5595 -0.66741,-4.6718 -3.1146,-2.2247 -2.0022,-1.3348 0.88988,3.1146 1.3348,2.8921 0.66738,6.0067 -1.5573,3.337 -0.22246,3.337 -4.6719,-0.66741 -0.44492,2.2247 -0.66741,2.8921 2.2247,2.8921 2.0022,5.5617 1.5573,3.1146 -2.8921,0.88988 h -2.8921 l -0.44495,-5.3393 -2.8921,-2.4472 -2.4472,-2.0022 -3.1146,-0.88987 -2.0022,0.6674 -0.88988,-2.4472"
       fill="#e5e3da"
       id="path1339" />
    <path
       d="m 402.45,248.5 -0.88987,-5.5617 2.6696,-2.8921 3.782,-2.4472 2.0022,-3.782 v -2.6696 l 2.4472,4.0044 0.66741,5.3393 -2.4472,4.4494 -1.5573,7.564 -1.1123,4.4494 -4.2269,2.4472 -2.8921,-1.3348 -1.1123,-3.782 0.22246,-3.337 z"
       fill="#e5e3da"
       id="path1341" />
    <path
       d="m 326.58,104.56 0.44493,-3.5595 v -2.2247 l -1.7798,-2.6696 -0.22246,-3.1146 2.0022,-1.7798 1.3348,3.1146 1.7798,2.0022 -0.88988,3.1146 2.8921,2.4472 0.66739,1.5573 -1.7798,2.6696 -4.6718,1.5573 z"
       fill="#e5e3da"
       id="path1343" />
    <path
       d="m 318.35,101.22 2.8921,-2.8921 2.2247,0.44494 v 2.0022 l -2.8921,2.0022 -2.2247,2.4472 z"
       fill="#e5e3da"
       id="path1345" />
    <path
       d="m 460.51,193.1 6.2291,-3.1146 v 4.0044 l -0.88988,2.2247 -3.1146,0.44493 z"
       fill="#e5e3da"
       id="path1347" />
    <path
       d="m 537.21,142.99 2.9889,-4.4047 2.9889,-1.1012 1.2585,-2.6743 1.5731,-0.94386 0.31462,-1.5731 v -4.09 l -0.15729,-1.7304 -0.94388,-1.8877 0.78655,-2.3596 v -1.8877 l 0.31462,-1.8877 1.5731,1.1012 3.6181,0.78655 v 0.94386 l -1.5731,0.94385 c 0,0 0,1.2585 -0.62923,1.2585 -0.62923,0 -1.7304,0.15731 -1.7304,0.15731 l -0.78655,1.4158 1.4158,1.4158 v 2.3596 l 0.62924,2.6743 -0.94385,3.3035 0.78655,2.517 -2.6743,1.7304 -2.8316,1.7304 -2.3596,1.5731 -2.3596,2.045 z"
       fill="#e5e3da"
       id="path1349" />
    <path
       d="m 525.57,162.82 -0.31461,-4.562 1.7304,-1.7304 1.7304,2.3596 0.1573,4.09 -1.2585,2.2023 z"
       fill="#e5e3da"
       id="path1351" />
    <path
       d="m 527.62,178.86 v -2.9889 l 0.94385,-4.2474 0.62923,-1.5731 2.6743,1.4158 -0.62924,3.4608 -0.78655,2.6743 4.09,1.7304 0.78655,2.2023 -3.1462,-0.47193 -3.9327,-0.62924 v -1.1012 z"
       fill="#e5e3da"
       id="path1353" />
    <path
       d="m 536.58,185.15 -0.15729,-2.9889 1.2585,1.4158 0.62924,2.8316 -2.5169,1.1012 -1.1012,1.4158 -1.1012,-2.045 -1.5731,-2.6743 1.1012,-1.2585 1.7304,3.1462 z"
       fill="#e5e3da"
       id="path1355" />
    <path
       d="m 535.8,193.02 -2.517,-0.31462 0.31462,-1.4158 2.6742,-0.78654 h 2.045 l 0.62925,-0.78655 1.1012,1.7304 -1.2585,3.9327 -1.2585,1.1012 -1.1012,-1.4158 z"
       fill="#e5e3da"
       id="path1357" />
    <path
       d="m 512.12,211.57 -1.1123,-6.4516 4.0044,-1.7798 4.6718,-3.337 3.5595,-6.0067 1.3348,-0.6674 2.8921,2.2247 1.7797,1.7798 -2.6696,2.8921 0.66741,2.4472 -1.3348,4.0044 -2.6696,5.3392 1.1123,4.8943 -6.4516,-1.3348 -3.337,-0.88988 z"
       fill="#e5e3da"
       id="path1359" />
    <path
       d="m 527.92,213.79 0.44492,-6.2291 2.6696,-3.1146 h 8.4538 l -1.1123,2.8921 h -3.782 l -2.8921,1.7798 0.66741,2.2247 3.337,-2.0022 0.66741,1.3348 -3.1146,2.4472 2.0022,2.2247 -0.22249,2.6696 h -2.2247 l -1.3348,-5.1168 -1.5573,2.2247 0.22246,1.1123 -0.88987,2.6696 z"
       fill="#e5e3da"
       id="path1361" />
    <path
       d="m 506.34,221.8 2.2247,-2.6696 9.1212,2.2247 2.4472,1.5573 0.44495,2.2247 -8.2314,-0.22247 -2.6696,-1.1123 z"
       fill="#e5e3da"
       id="path1363" />
    <path
       d="m 523.69,225.58 2.6696,-0.66741 1.1123,-1.3348 2.2247,1.3348 -3.337,1.1124 -2.0022,1.1123 z"
       fill="#e5e3da"
       id="path1365" />
    <path
       d="m 538.6,213.13 -0.22246,-2.6696 2.8921,1.1124 0.22249,2.4472 z"
       fill="#e5e3da"
       id="path1367" />
    <path
       d="m 541.27,208.9 2.0022,-3.1146 2.2247,1.1124 -2.4472,3.1146 z"
       fill="#e5e3da"
       id="path1369" />
    <path
       d="m 543.27,214.68 c 0,0 -1.1124,-4.0044 0,-3.782 1.1123,0.22247 4.0044,2.6696 4.0044,2.6696 l -1.5573,0.88988 z"
       fill="#e5e3da"
       id="path1371" />
    <path
       d="m 547.94,210.46 2.2247,-1.1124 h 3.337 l 0.44495,4.2269 3.5595,-1.1123 2.8921,-1.3348 4.4494,1.3348 2.8921,1.3348 5.1168,5.3393 3.1146,4.4494 2.4472,3.337 2.0022,2.2247 -5.1168,0.22247 -4.0044,-5.1168 -2.6696,2.4472 -6.6741,-2.0022 -2.4472,1.1123 -1.1123,-2.8921 0.66738,-3.5595 -6.4516,-2.4472 -3.1146,-2.0022 3.3371,-1.5573 z"
       fill="#e5e3da"
       id="path1373" />
    <path
       d="m 576.42,218.02 3.337,0.22246 3.1146,-0.44493 -0.66742,-1.7798 -0.88987,-3.5595 3.782,2.0022 2.4472,2.6696 -3.337,0.22247 -2.8921,2.6696 -3.337,1.5573 -1.7798,-2.4472 z"
       fill="#e5e3da"
       id="path1375" />
    <path
       d="m 534.37,227.36 5.5617,-3.782 0.88987,0.88988 v 1.7798 l -1.5573,0.88987 -3.1146,2.0022 -1.1124,0.22247 z"
       fill="#e5e3da"
       id="path1377" />
    <path
       d="m 521.69,249.83 6.8965,-4.4494 2.6696,-4.8943 0.66741,-0.88987 2.2247,2.2247 1.5573,-5.1168 4.0044,-1.3348 2.4472,2.2247 2.2247,-4.4494 2.8921,-1.7798 h 9.1212 l -0.66741,2.2247 -0.88987,2.6696 v 1.7798 l 3.1146,1.7798 2.2247,2.2247 1.5573,-2.2247 0.44492,-4.4494 2.6696,-5.7842 1.3348,-1.5573 1.3348,6.8965 2.6696,3.782 0.66741,5.1168 1.7797,3.782 1.5573,6.4516 2.4472,4.0044 1.1124,7.564 -2.8921,5.1168 -4.8943,5.7842 -5.1168,6.4516 -7.564,2.8921 -4.2269,1.1123 -2.8921,-3.782 -3.1146,-6.4516 -0.66739,-2.2247 -1.7798,2.8921 -2.2247,-4.6718 -5.3393,-1.3348 -2.2247,2.2247 -10.234,2.8921 h -4.0044 l -2.8921,1.7798 -5.1168,-0.22249 -0.8899,-2.6696 2.8921,-4.0044 -0.22247,-6.4516 -1.1124,-10.679 3.5595,-2.6696 z"
       fill="#e5e3da"
       id="path1379" />
    <path
       d="m 551.28,292.55 1.1123,-3.5595 4.0044,0.88987 1.7798,0.66741 -0.44492,2.6696 -3.1146,2.0022 -2.8921,1.5573 z"
       fill="#e5e3da"
       id="path1381" />
    <path
       d="m 579.09,299.44 7.119,-4.0044 5.1168,-2.6696 2.0022,-2.4472 3.782,-0.44495 0.22246,2.8921 -4.0044,4.6718 -5.5617,1.5573 -4.0044,2.0022 -5.5617,0.66741 v -3.337 z"
       fill="#e5e3da"
       id="path1383" />
  </g>
  <marker
     id="pf1"
     viewBox="0 0 10 10"
     refX="0"
     refY="5"
     markerUnits="strokeWidth"
     markerWidth="5"
     markerHeight="5"
     stroke="#0065bd"
     fill="#0065bd"
     orient="auto">
    <path
       d="M 0,0 10,5 0,10 Z"
       id="path48" />
  </marker>
  <marker
     id="pf2"
     viewBox="0 0 10 10"
     refX="0"
     refY="5"
     markerUnits="strokeWidth"
     markerWidth="5"
     markerHeight="5"
     stroke="#a2ad00"
     fill="#a2ad00"
     orient="auto">
    <path
       d="M 0,0 10,5 0,10 Z"
       id="path51" />
  </marker>
  <marker
     id="pf3"
     viewBox="0 0 10 10"
     refX="0"
     refY="5"
     markerUnits="strokeWidth"
     markerWidth="5"
     markerHeight="5"
     stroke="#e37222"
     fill="#e37222"
     orient="auto">
    <path
       d="M 0,0 10,5 0,10 Z"
       id="path54" />
  </marker>
  <!-- original path -->
  <g
     id="g25">
    <g
       stroke="#343a40"
       fill="none"
       stroke-width="0.1"
       id="grid-line" />
    <g
       marker-end="url(#pf1)"
       stroke="#0065bd"
       fill="none"
       stroke-width="0.5"
       id="polyline-orig" />
    <g
       marker-end="url(#pf2)"
       stroke="#a2ad00"
       fill="none"
       stroke-width="0.5"
       id="polyline-origMag" />
    <g
       marker-end="url(#pf3)"
       stroke="#e37222"
       fill="none"
       stroke-width="0.5"
       id="polyline-origGrid" />
    <g
       stroke="#343a40"
       fill="#ffffff"
       stroke-width="0.5"
       id="points-orig" />
  </g>
  <path
     style="fill:url(#linearGradient905);fill-opacity:1;stroke:#000000;stroke-width:0.100115;stroke-dasharray:none"
     d="m 55.828617,26.198756 0.990183,1.834473 0.990183,-1.855806 z"
     id="path521" />
  <path
     style="fill:#000000;stroke:#000000;stroke-width:0.1;stroke-dasharray:none"
     d="M 57.812945,26.087513 56.827553,24.039137 55.824242,26.1021 Z"
     id="path521-2"
     inkscape:transform-center-x="-0.035520143"
     inkscape:transform-center-y="-0.31140034" />
  <path
     sodipodi:type="star"
     style="fill:#000000;fill-opacity:1;stroke:#000000;stroke-width:0.0377953"
     id="path4407"
     inkscape:flatsided="false"
     sodipodi:sides="5"
     sodipodi:cx="74.788139"
     sodipodi:cy="5.0847459"
     sodipodi:r1="2.118644"
     sodipodi:r2="0.94451439"
     sodipodi:arg1="0.92729522"
     sodipodi:arg2="1.5556137"
     inkscape:rounded="0"
     inkscape:randomized="0"
     d="m 76.059326,6.7796611 -1.256847,-0.7505097 -1.233482,0.7883222 0.325391,-1.4272525 -1.130906,-0.9295058 1.457949,-0.1315809 0.534543,-1.3627883 0.575672,1.345931 1.461272,0.087256 -1.102164,0.963412 z"
     inkscape:transform-center-x="0.0089130502"
     inkscape:transform-center-y="-0.18258641"
     transform="matrix(0.89670249,0,0,0.9468479,7.6184453,12.259774)" />
  <text
     xml:space="preserve"
     style="font-style:normal;font-variant:normal;font-weight:normal;font-stretch:normal;font-size:2px;font-family:Arial;-inkscape-font-specification:'Arial, Normal';font-variant-ligatures:normal;font-variant-caps:normal;font-variant-numeric:normal;font-variant-east-asian:normal;white-space:pre;inline-size:65.0598;display:inline;fill:#000000;fill-opacity:1;stroke:#000000;stroke-width:0.01;stroke-dasharray:none;stroke-opacity:1"
     x="126.05932"
     y="113.77119"
     id="text350"
     transform="translate(-18.261901,3.6910113)"><tspan
       x="126.05932"
       y="113.77119"
       id="tspan2197">schematic illustration of a Mollweide projection</tspan></text>
  <text
     xml:space="preserve"
     id="text2045"
     style="font-style:normal;font-variant:normal;font-weight:normal;font-stretch:normal;font-size:2.66667px;font-family:Arial;-inkscape-font-specification:'Arial, Normal';font-variant-ligatures:normal;font-variant-caps:normal;font-variant-numeric:normal;font-variant-east-asian:normal;white-space:pre;shape-inside:url(#rect2047);display:inline;fill:#000000;fill-opacity:1;stroke:#000000;stroke-width:0.01;stroke-dasharray:none;stroke-opacity:1" />
</svg>
