<svg xmlns="http://www.w3.org/2000/svg" width="390" height="130" viewBox="0 0 300 100" class="{{ include.class }}">
  <g>
    <line x1="98.4" y1="1.6" x2="1.6" y2="98.4" fill="none" stroke="#6c757d" stroke-linejoin="round" stroke-width="4"/>
    <circle cx="12" cy="7" r="2" fill="#a2ad00"/>
    <circle cx="28" cy="9" r="2" fill="#a2ad00"/>
    <circle cx="21" cy="17" r="2" fill="#a2ad00"/>
    <circle cx="11" cy="20" r="2" fill="#a2ad00"/>
    <circle cx="41" cy="9" r="2" fill="#a2ad00"/>
    <circle cx="54" cy="8" r="2" fill="#a2ad00"/>
    <circle cx="36" cy="16" r="2" fill="#a2ad00"/>
    <circle cx="19" cy="28" r="2" fill="#a2ad00"/>
    <circle cx="36" cy="27" r="2" fill="#a2ad00"/>
    <circle cx="48" cy="19" r="2" fill="#a2ad00"/>
    <circle cx="61" cy="15" r="2" fill="#a2ad00"/>
    <circle cx="73" cy="9" r="2" fill="#a2ad00"/>
    <circle cx="58" cy="26" r="2" fill="#a2ad00"/>
    <rect x="28" y="34" width="24" height="13" transform="translate(-16.9 40.1) rotate(-45)" fill="#e37222"/>
    <path d="M35.8,99c-.3-4,.3-8.2,2.7-11.5,5.5-7.6,15.4-3.6,25-11s7-17.1,14-28C81.1,42.9,87,34,99,32.3" fill="none" stroke="#0065bd" stroke-miterlimit="10" stroke-width="6"/>
    <circle cx="25" cy="37" r="2" fill="#a2ad00"/>
    <circle cx="10" cy="35" r="2" fill="#a2ad00"/>
    <circle cx="12" cy="46" r="2" fill="#a2ad00"/>
    <circle cx="23" cy="52" r="2" fill="#a2ad00"/>
    <circle cx="23" cy="64" r="2" fill="#a2ad00"/>
    <circle cx="13" cy="59" r="2" fill="#a2ad00"/>
    <circle cx="14" cy="73" r="2" fill="#a2ad00"/>
    <circle cx="6" cy="66" r="2" fill="#a2ad00"/>
    <circle cx="6" cy="82" r="2" fill="#a2ad00"/>
    <circle cx="85" cy="62" r="2" fill="#a2ad00"/>
    <circle cx="79" cy="77" r="2" fill="#a2ad00"/>
    <circle cx="92" cy="75" r="2" fill="#a2ad00"/>
    <circle cx="85" cy="87" r="2" fill="#a2ad00"/>
    <circle cx="93" cy="94" r="2" fill="#a2ad00"/>
    <circle cx="92" cy="50" r="2" fill="#a2ad00"/>
  </g>
  <g>
    <line x1="298.4" y1="1.6" x2="201.6" y2="98.4" fill="none" stroke="#6c757d" stroke-linejoin="round" stroke-width="4"/>
    <rect x="228" y="34" width="24" height="13" transform="translate(41.7 181.6) rotate(-45)" fill="#e37222"/>
    <path d="M235.8,99c-.3-4,.3-8.2,2.7-11.5,5.5-7.6,15.4-3.6,25-11s7-17.1,14-28C281.1,42.9,287,34,299,32.3" fill="none" stroke="#0065bd" stroke-miterlimit="10" stroke-width="6"/>
    <path d="M285.5,1c-2.1,2.6-4.5,5-6.5,7s-1.1.9-11,9-12.1,10.2-15,10c-5-.3-6.1-5-12-5-3.2,0-5.5,1.5-8,3a26,26,0,0,0-10,12c-1.1,2.5-1.9,4.4-2,7-.2,6.2,4,8.1,5,13,1.3,6.5-4.2,12.6-11,20s-10,11-14,13.4V3a2,2,0,0,1,2-2Z" fill="#a2ad00"/>
    <path d="M299,38.8V97a2,2,0,0,1-2,2H282c-2.9-7.5-2.4-16.2-2-25s2.4-14.5,5-22c1.6-4.7,2.8-7,5-9A17.9,17.9,0,0,1,299,38.8Z" fill="#a2ad00"/>
  </g>
  <g>
    <rect x="1" y="1" width="98" height="98" rx="2" ry="2" fill="none" stroke="#343a40" stroke-miterlimit="10" stroke-width="2"/>
    <rect x="201" y="1" width="98" height="98" rx="2" ry="2" fill="none" stroke="#343a40" stroke-miterlimit="10" stroke-width="2"/>
    <g>
      <line x1="125" y1="50" x2="169.6" y2="50" fill="none" stroke="#343a40" stroke-miterlimit="10" stroke-width="5"/>
      <polygon points="153 70.4 149.6 66.8 167.7 50 149.6 33.2 153 29.6 175 50 153 70.4" fill="#343a40"/>
    </g>
  </g>
</svg>
