<?xml version="1.0" encoding="utf-8"?>
<svg version="1.1" id="svg1" xmlns:svg="http://www.w3.org/2000/svg"
	 xmlns="http://www.w3.org/2000/svg" xmlns:xlink="http://www.w3.org/1999/xlink" x="0px" y="0px" width="1275px" height="354px"
	 viewBox="0 0 1275 354" enable-background="new 0 0 1275 354" xml:space="preserve">
<polygon fill="#878787" points="340.476,256.55 397.225,250.372 490.393,282.953 425.498,305.747 338.012,298.313 284.342,276.61 
	"/>
<polygon fill="#878787" points="198.448,203.83 289.375,191.436 438.653,256.806 334.674,302.543 194.5,287.626 108.508,244.082 "/>
<polygon fill="#2585BF" stroke="#E37222" stroke-width="2" stroke-linecap="round" stroke-linejoin="round" stroke-miterlimit="10" points="
	196.903,287.799 78.044,236.592 78.044,68.53 196.903,120.879 "/>
<polygon fill="#123E66" stroke="#E37222" stroke-width="2" stroke-linecap="round" stroke-linejoin="round" stroke-miterlimit="10" points="
	319.053,68.53 196.903,120.737 196.903,287.799 319.053,236.592 "/>
<polygon fill="#237CCC" stroke="#E37222" stroke-width="2" stroke-linecap="round" stroke-linejoin="round" stroke-miterlimit="10" points="
	196.903,20.042 78.044,68.53 196.903,120.879 319.053,68.53 "/>
<polygon fill="#BF5722" stroke="#1D65AF" stroke-width="2" stroke-linecap="round" stroke-linejoin="round" stroke-miterlimit="10" points="
	344.8,298.527 273.426,266.916 273.426,167.938 344.8,198.26 "/>
<polygon fill="#663310" stroke="#1D65AF" stroke-width="2" stroke-linecap="round" stroke-linejoin="round" stroke-miterlimit="10" points="
	418.175,167.938 344.8,197.975 344.8,298.527 418.175,266.916 "/>
<polygon fill="#E37222" stroke="#1D65AF" stroke-width="2" stroke-linecap="round" stroke-linejoin="round" stroke-miterlimit="10" points="
	344.8,137.614 273.426,167.938 344.8,198.26 418.175,167.938 "/>
<polygon fill="#BF5722" stroke="#1D65AF" stroke-width="2" stroke-linecap="round" stroke-linejoin="round" stroke-miterlimit="10" points="
	732.067,241.091 637.5,199.272 637.5,68.128 732.067,108.275 "/>
<polygon fill="#663310" stroke="#1D65AF" stroke-width="2" stroke-linecap="round" stroke-linejoin="round" stroke-miterlimit="10" points="
	829.199,68.128 732.067,107.94 732.067,241.091 829.199,199.272 "/>
<polygon fill="#E37222" stroke="#1D65AF" stroke-width="2" stroke-linecap="round" stroke-linejoin="round" stroke-miterlimit="10" points="
	732.067,27.982 637.5,68.128 732.067,108.275 829.199,68.128 "/>
<polygon fill="#878787" points="853.286,234.179 945.734,221.576 1097.509,288.041 991.791,334.543 849.273,319.377 
	761.841,275.104 "/>
<polygon fill="#333333" points="330.495,292.375 282.865,171.943 327.349,153.349 319.053,148.485 273.426,167.938 273.426,266.916 
	"/>
</svg>
