<?xml version="1.0" encoding="utf-8"?>
<svg version="1.1"
	 id="Fluess" xmlns:sodipodi="http://sodipodi.sourceforge.net/DTD/sodipodi-0.dtd" xmlns:inkscape="http://www.inkscape.org/namespaces/inkscape" xmlns:svg="http://www.w3.org/2000/svg"
	 xmlns="http://www.w3.org/2000/svg" xmlns:xlink="http://www.w3.org/1999/xlink" x="0px" y="0px" width="600px" height="300px"
	 viewBox="542.95 665.1 600 300" enable-background="new 542.95 665.1 600 300" xml:space="preserve">
<path fill="#0065BD" d="M1100.184,958.109c-2.21-1.487-4.16-3.42-6.63-4.461c-1.429-0.745-3.119-0.894-4.549-1.638
	c-0.389-0.147-0.779-0.445-1.17-0.594c-0.519-0.893-0.91-1.786-1.299-2.827l-2.47-1.337c-0.13-0.149-0.26-0.447-0.52-0.597
	c-0.78-1.636-1.69-3.122-2.729-4.61c-1.301-2.381-2.729-4.61-4.03-6.99l0,0c-0.91-2.082-1.56-4.463-2.73-6.546
	c-0.78-2.083-1.689-4.313-2.73-6.246c-0.129-0.299-0.26-0.594-0.389-0.894c0.129-0.893,0-1.783-0.39-2.677
	c-0.78-2.231-1.95-4.165-3.38-5.801c-1.82-2.231-3.51-4.462-5.07-6.842c0.131-0.893,0.26-1.637,0.26-2.529
	c0.26-1.635,0.39-3.271,0.131-4.908c-0.26-1.637-0.651-2.976-1.561-4.313c-0.909-1.487-1.43-2.974-1.949-4.76
	c-0.78-1.785-1.69-3.569-2.34-5.504c-0.52-2.677-0.26-5.503,0-8.179c0.39-2.381,0.91-4.612,1.82-6.843
	c0.78-1.637,1.82-3.272,2.73-4.909c0.78-1.487,1.559-2.826,2.469-4.165c0.78-1.636,1.301-3.42,1.561-5.355
	c0.129-0.891,0.129-1.636,0.129-2.38c0.39-1.188,0.781-2.379,1.041-3.567c0.129-2.232-0.651-4.165-1.69-6.101
	c-1.17-2.082-2.729-3.719-3.899-5.801c-1.56-2.379-2.99-4.908-4.29-7.436c-1.169-1.934-2.209-3.867-3.119-5.802
	c-0.781-1.785-1.431-3.718-2.08-5.504c-0.13-0.891-0.13-1.636-0.13-2.527c0-1.934,0-3.867,0-5.802
	c-0.129-1.934-0.129-3.866-0.65-5.652c-0.649-1.487-1.299-2.974-2.338-4.313c-0.65-1.19-1.821-1.785-2.6-2.825l-0.131-0.151
	c-0.39-1.486-0.779-2.825-1.039-4.313c-0.781-2.526-1.56-4.016-3.12-6.098c-0.26-0.297-0.521-0.743-0.78-1.04
	c-1.56-1.19-3.25-2.231-4.81-3.421c-2.08-1.339-7.799-4.612-8.059-5.504c-0.131-1.042-0.39-2.082-0.78-3.124
	c0-0.297-0.129-0.596-0.129-0.892c-0.39-2.678-1.041-5.355-1.561-8.033c-0.779-3.273-1.818-6.394-3.119-9.37
	c-0.26-0.446-0.39-1.041-0.65-1.488c-0.52-0.891-1.17-1.636-1.82-2.378c0-0.3-0.13-0.596-0.13-0.894
	c-0.519-2.084-0.779-4.314-1.169-6.396c-0.391-0.891-0.78-1.485-1.43-2.23c-2.99-3.57-7.02-5.652-10.789-7.437
	c-2.47-0.894-4.94-1.487-7.409-2.082c-0.26-0.148-0.52-0.148-0.781-0.298c-2.859-0.893-5.719-2.083-8.578-2.38
	c0,0-2.34,0-3.77-0.298c-0.26,0-0.39-0.149-0.649-0.149c-1.17-0.444-2.34-1.041-3.51-1.783c-3.64-1.786-7.279-3.272-10.919-4.166
	l-1.039-0.894c-2.08-1.039-1.95-0.891-3.9-2.082c-0.129-0.148-0.391-0.296-0.649-0.444c-1.951-1.34-3.77-2.529-5.721-3.867
	c-0.389-0.447-0.779-0.744-1.17-1.192c-0.909-1.04-1.689-2.082-2.338-3.271c-0.131-0.446-0.39-1.041-0.521-1.488
	c-1.17-2.678-2.209-5.503-3.12-8.328c-0.779-2.38-1.429-4.907-2.99-6.843c-1.168-1.934-2.078-4.016-3.379-5.8
	c-0.779-1.487-1.559-2.977-2.469-4.463c0-0.148-0.131-0.446-0.131-0.595c-1.04-4.76-3.64-10.859-4.16-11.602
	c-0.52-0.745-2.729-4.313-2.729-4.313s-0.911-0.596-1.041-1.043h-7.409c0.259,1.785,1.039,2.678,1.039,2.678s1.95,3.72,2.73,5.651
	c0.91,2.381,1.3,4.91,2.47,7.142c1.17,1.933,2.08,4.015,2.599,6.394c0.261,2.232,0.65,4.464,1.04,6.547
	c0.26,1.784,0.65,3.421,1.3,5.057c0.781,1.337,1.431,2.677,1.95,4.015c0.91,1.787,2.08,3.272,2.989,5.059
	c0.91,1.933,2.34,3.272,3.9,4.609c1.041,0.746,2.081,1.638,2.99,2.53l0,0c2.469,3.42,5.2,5.801,8.319,8.328
	c0.26,0.15,0.52,0.447,0.78,0.596c0.39,0.298,0.65,0.447,1.04,0.744c2.6,1.934,5.2,3.569,7.93,5.354
	c7.409,5.058,5.33,3.867,9.748,6.247c0.391,0.297,0.781,0.595,1.301,0.743c2.34,0.893,5.07,1.043,7.408,1.339
	c0.262,0,4.291,0.743,4.811,0.743c2.209,0.447,4.289,1.488,6.5,2.082c2.079,0.596,1.04,0.3,2.989,0.894
	c0.65,0.149,1.17,0.445,1.821,0.596c1.819,0.742,3.769,1.488,5.588,2.082c0.781,1.041,1.43,1.932,2.211,2.974
	c0.129,0.598,0.26,1.34,0.519,1.936c0.52,1.782,0.649,3.718,0.78,5.503c0.26,1.934,1.041,3.866,1.69,5.652
	c0.519,1.933,1.56,3.567,2.599,5.205c0.521,0.745,0.91,1.637,1.17,2.38c0.131,1.043,0.26,2.082,0.391,3.272
	c-0.131,0.892-0.131,1.784,0,2.678c0.259,0.445,0.519,0.892,0.91,1.189c0.259,0.297,0.389,0.596,0.779,0.744h0.13
	c0.259,0.149,0.52,0.445,0.779,0.594c0.131,0.15,0.26,0.15,0.52,0.298c7.149,5.057,12.348,8.628,12.869,9.371
	c0.52,1.636,1.3,3.123,2.21,4.611c0.65,1.189,1.689,1.932,2.47,2.975c1.04,1.188,1.689,2.678,2.469,4.018
	c0.65,1.635,0.78,3.419,0.91,5.354c0,1.933,0,3.866,0,5.801c-0.13,2.232,0.26,4.462,0.78,6.693c0.519,1.933,1.3,3.868,2.08,5.651
	c0.779,1.936,1.43,4.017,2.34,5.949c0.91,1.637,2.08,3.272,3.119,4.76c1.039,1.489,2.209,2.827,2.99,4.463
	c0.78,1.934,1.17,4.165,1.949,6.099c0.91,1.784,1.17,3.421,0.91,5.503c-0.259,1.785-0.519,3.421-1.3,4.909
	c-0.129,0.298-0.26,0.446-0.389,0.744c-0.39,0.595-0.91,1.188-1.3,1.934c-0.26,0.594-0.52,1.041-0.78,1.635
	c-0.91,1.637-1.82,3.272-2.729,4.91c-1.041,2.23-1.56,4.759-1.95,7.139c-0.26,1.934-0.39,3.867-0.39,5.802
	c0,0.147-0.129,0.446-0.129,0.594c0,0.743,0.129,1.338,0.259,1.933v0.15c0.52,2.082,1.3,3.867,2.21,5.8
	c0.521,1.638,1.17,3.273,1.82,4.759c0.779,1.192,1.299,2.53,1.69,3.869c0.39,1.487,0.26,2.974,0,4.462
	c-0.26,1.785-0.391,3.422-0.651,5.206c-0.129,1.935-0.649,4.016,0.391,5.651c0.13,0.297,0.39,0.596,0.65,0.745
	c0.26,0.147,0.521,0.446,0.779,0.594c1.04,0.744,2.081,1.34,3.12,1.935c0.13,0,0.13,0.148,0.13,0.148
	c1.95,2.378,3.51,4.908,4.94,7.733c0.779,1.487,1.43,2.976,2.209,4.464c-0.129,0.742-0.129,1.338-0.129,2.082
	c0.129,2.379,1.039,4.61,1.689,6.693c1.17,2.975,2.989,5.504,5.069,7.884c0.52,1.04,1.041,2.081,1.561,3.122
	c1.299,2.53,2.859,4.761,4.81,6.545c0.65,0.596,1.43,1.19,2.08,1.636c1.429,2.083,3.64,3.57,5.849,4.464
	c0.13,0,0.13,0.148,0.26,0.148c2.989,2.083,6.629,4.313,6.629,4.313h11.829"/>
<path id="Isar" fill="none" stroke="#0065BD" stroke-width="5" stroke-miterlimit="10" d="M586.327,963.464
	c15.338-56.671,63.564-81.808,92.291-126.132c10.008-15.469,17.677-29.748,20.667-42.84c11.438-49.975,4.42-68.122,12.609-84.482
	c8.189-16.213,31.716-28.56,28.597-44.772"/>
<path id="Isar_Haupt" fill="none" stroke="#0065BD" stroke-width="2" stroke-miterlimit="10" d="M791.056,665.238
	c-2.99,3.867-11.049,3.571-12.999,15.321c-1.95,11.751-24.698,46.257-34.057,63.214c-9.358,16.958-27.687,70.801-39.645,79.726
	c-7.02,5.208-20.278,15.319-28.857,18.592"/>
<path fill="none" d="M578.95,963.464c15.338-56.671,63.563-85.824,92.161-130.148c10.009-15.469,17.678-29.749,20.668-42.838
	c11.438-49.978,4.42-68.122,12.608-84.483c8.319-16.362,31.718-24.544,28.597-40.757"/>
<path fill="#0065BD" d="M680.437,817.55C680.437,817.698,680.437,817.698,680.437,817.55c0.13,0.147,0.13,0.147,0.13,0.297
	c0,0,0,0.147-0.13,0.147c0,0.15-0.13,0.15-0.13,0.298c0,0.149-0.13,0.149-0.13,0.298s-0.129,0.148-0.129,0.148h-0.13h-0.129
	l-7.93-5.799c0,0,0,0-0.13-0.15v-0.148c0,0,0-0.148,0.13-0.298c0-0.149,0.131-0.149,0.131-0.297
	c0.129-0.149,0.129-0.149,0.129-0.298l0.13-0.148h0.13h0.13L680.437,817.55z"/>
<path fill="#0065BD" d="M683.947,806.543c0.26,0.147,0.52,0.445,0.78,0.742c0.13,0.299,0.261,0.596,0.39,0.894
	c0,0.296,0,0.743,0,1.042c-0.129,0.444-0.26,0.742-0.39,1.188c-0.129,0.298-0.26,0.446-0.389,0.595
	c-0.13,0.148-0.26,0.298-0.391,0.446c-0.13,0.149-0.259,0.298-0.389,0.298c-0.13,0.148-0.261,0.148-0.261,0.148
	c-0.129,0-0.129,0-0.26,0c-0.13,0-0.26-0.148-0.39-0.148c-0.13,0-0.13-0.148-0.26-0.148l-0.13-0.149v-0.148c0,0,0,0,0-0.149
	c0,0,0.13-0.148,0.26-0.148s0.259-0.148,0.39-0.297c0.13-0.15,0.26-0.298,0.52-0.445c0.13-0.15,0.26-0.447,0.39-0.746
	c0.13-0.147,0.13-0.445,0.26-0.594c0-0.149,0-0.447,0-0.596c0-0.147-0.13-0.297-0.13-0.445c-0.13-0.149-0.259-0.297-0.389-0.297
	c-0.13-0.151-0.39-0.151-0.521-0.151c-0.13,0-0.39,0.151-0.52,0.151c-0.13,0.147-0.391,0.297-0.521,0.445
	c-0.13,0.149-0.39,0.297-0.52,0.445c-0.13,0.15-0.39,0.298-0.521,0.447c-0.13,0.148-0.389,0.299-0.649,0.299
	c-0.26,0.147-0.39,0.147-0.65,0.147s-0.52-0.147-0.78-0.298c-0.259-0.148-0.39-0.298-0.65-0.596c-0.13-0.296-0.26-0.445-0.39-0.891
	c0-0.299-0.13-0.596,0-1.041c0-0.447,0.13-0.744,0.39-1.191c0.13-0.148,0.13-0.298,0.26-0.594c0.13-0.15,0.26-0.298,0.39-0.447
	c0.13-0.149,0.26-0.149,0.26-0.298c0.13-0.147,0.13-0.147,0.26-0.147h0.129h0.13h0.13c0,0,0.129,0,0.129,0.147
	c0.13,0,0.13,0.148,0.13,0.148l0.129,0.149v0.149c0,0,0,0,0,0.147l-0.129,0.15c-0.13,0-0.26,0.148-0.26,0.296
	c-0.13,0.149-0.261,0.298-0.39,0.447c-0.13,0.148-0.26,0.298-0.391,0.595c-0.13,0.148-0.13,0.447-0.259,0.595
	c0,0.148,0,0.298,0,0.446s0.129,0.296,0.129,0.447c0.13,0.147,0.13,0.147,0.26,0.297c0.13,0.148,0.39,0.148,0.52,0.148
	s0.39-0.148,0.52-0.148c0.13-0.149,0.391-0.297,0.52-0.448c0.13-0.147,0.39-0.296,0.521-0.444c0.129-0.149,0.39-0.298,0.52-0.445
	c0.129-0.15,0.389-0.299,0.65-0.299c0.26-0.148,0.389-0.148,0.649-0.148C683.427,806.393,683.687,806.393,683.947,806.543z"/>
<path fill="#0065BD" d="M690.089,795.982C690.089,795.982,690.186,796.13,690.089,795.982c0.13,0.148,0.13,0.299,0.13,0.299
	c0,0.147,0,0.147-0.13,0.295c0,0.148-0.13,0.3-0.13,0.3c0,0.147-0.129,0.147-0.129,0.147h-0.13l-0.65-0.299
	c0.13,0.446,0.259,0.894,0.259,1.34s0,0.894-0.129,1.338c-0.13,0.446-0.26,0.745-0.52,1.041c-0.13,0.299-0.391,0.446-0.65,0.597
	c-0.26,0.148-0.521,0.148-0.78,0.296c-0.26,0-0.52,0-0.91-0.147c-0.39-0.148-0.65-0.446-0.78-0.745
	c-0.26-0.296-0.389-0.595-0.389-1.041c0-0.444,0-0.892,0-1.338s0.26-1.041,0.389-1.636l0.39-1.041l-0.52-0.299
	c-0.26-0.147-0.52-0.147-0.65-0.147c-0.26,0-0.391,0-0.52,0c-0.131,0-0.261,0.147-0.521,0.446c-0.13,0.148-0.26,0.445-0.39,0.743
	c-0.129,0.298-0.129,0.594-0.26,0.893c0,0.299,0,0.595,0,0.743c0,0.298,0,0.447,0,0.597c0,0.147,0,0.296,0,0.296
	s0,0.148-0.129,0.148h-0.13h-0.13c0,0-0.13,0-0.26,0c-0.129,0-0.259-0.148-0.259-0.148s-0.131-0.148-0.131-0.296
	c0-0.149,0-0.299-0.129-0.447c0-0.149,0-0.446,0-0.745c0-0.295,0-0.595,0.129-0.89c0-0.299,0.131-0.596,0.261-0.894
	c0.129-0.446,0.389-0.895,0.649-1.189c0.26-0.299,0.52-0.595,0.78-0.745c0.26-0.148,0.521-0.148,0.91-0.148
	c0.389,0,0.649,0.148,1.04,0.299L690.089,795.982z M686.677,795.982l-0.39,1.188c-0.13,0.299-0.26,0.745-0.26,1.043
	c0,0.297,0,0.594,0,0.744c0,0.296,0.13,0.444,0.26,0.596c0.13,0.147,0.26,0.295,0.52,0.295c0.39,0.147,0.65,0.147,0.91,0
	c0.26-0.147,0.52-0.446,0.65-0.891c0.13-0.299,0.13-0.744,0.13-1.042s-0.13-0.745-0.39-1.191L686.677,795.982z"/>
<path fill="#0065BD" d="M686.677,782.744c0.13,0,0.261,0,0.261,0.149c0.129,0,0.129,0,0.129,0.148c0,0,0,0,0.13,0.148
	c0,0,0,0,0,0.148c0,0,0,0.149-0.13,0.149l-0.129,0.147c0,0.149-0.131,0.149-0.131,0.3c0,0.147-0.13,0.147-0.13,0.295
	c0,0.15,0,0.3,0,0.447c0,0.148,0.13,0.297,0.13,0.446c0.131,0.149,0.131,0.446,0.39,0.596c0.13,0.147,0.39,0.446,0.52,0.742
	l4.29,1.19h0.13c0,0,0,0,0,0.149v0.148c0,0.149,0,0.149,0,0.298c0,0.147,0,0.297-0.13,0.297c0,0.15,0,0.15-0.129,0.15
	c0,0,0,0.147-0.13,0.147h-0.13l-6.629-1.935h-0.13c0,0,0,0,0-0.147v-0.147c0-0.151,0-0.151,0-0.3c0-0.147,0-0.147,0.13-0.297
	c0-0.149,0-0.149,0.129-0.149c0,0,0,0,0.13-0.147h0.13l0.91,0.297c-0.26-0.297-0.391-0.595-0.521-0.743
	c-0.129-0.299-0.259-0.447-0.259-0.596c0-0.147-0.13-0.297-0.13-0.595c0-0.147,0-0.298,0-0.447c0,0,0-0.147,0.13-0.297
	c0.13-0.148,0-0.148,0.13-0.297c0-0.148,0.129-0.148,0.129-0.298l0.13-0.148c0,0,0,0,0.13,0c0,0,0,0,0.13,0h0.13
	C686.417,782.595,686.547,782.595,686.677,782.744z"/>
<g>
	<path fill="#0065BD" d="M1039.87,771.737C1039.74,771.737,1039.74,771.737,1039.87,771.737c-0.13,0-0.13,0-0.26,0l-0.13-0.148
		c0,0-0.129-0.148-0.129-0.299c-0.129-0.147-0.129-0.147-0.129-0.296c0-0.147,0-0.147-0.131-0.147v-0.15c0,0,0,0,0.131-0.149
		l7.019-5.503l0,0l-8.969,2.231h-0.13h-0.13l-0.129-0.149c0,0-0.131-0.148-0.131-0.297c0-0.149-0.129-0.149-0.129-0.298
		s0-0.148-0.131-0.148v-0.149v-0.147l5.2-8.627l0,0l-7.02,5.502h-0.129h-0.131l-0.129-0.147c0,0-0.131-0.147-0.131-0.299
		c-0.13-0.148-0.13-0.148-0.13-0.296c0-0.148,0-0.148-0.129-0.148v-0.15c0,0,0,0,0.129-0.147l7.41-5.802
		c0.129-0.147,0.39-0.147,0.521-0.147c0.129,0,0.26,0.147,0.26,0.295l0.39,0.745c0.129,0.149,0.129,0.298,0.26,0.447
		c0,0.148,0,0.296,0,0.444c0,0.151,0,0.299-0.131,0.446c-0.129,0.147-0.129,0.299-0.26,0.447l-4.29,7.138l0,0l7.539-1.782
		c0.131,0,0.26,0,0.391,0c0.129,0,0.259,0,0.389,0c0.13,0,0.13,0.147,0.26,0.147c0.129,0,0.129,0.148,0.26,0.298l0.519,0.742
		c0,0,0.13,0.15,0.13,0.3c0,0.147,0,0.147,0,0.295c0,0.151,0,0.151-0.13,0.3c-0.129,0.147-0.129,0.147-0.26,0.147L1039.87,771.737z"
		/>
</g>
<g>
	<path fill="#0065BD" d="M1042.112,774.562C1041.95,774.711,1041.95,774.711,1042.112,774.562c-0.129,0-0.129,0-0.259,0l-0.13-0.147
		c0,0-0.131-0.148-0.26-0.297c-0.13-0.15-0.13-0.15-0.13-0.298c0-0.148-0.131-0.148-0.131-0.148v-0.149c0,0,0,0,0-0.149l5.461-4.759
		c0,0,0,0,0.129,0h0.13l0.13,0.148c0,0,0.13,0.148,0.26,0.298c0.129,0.148,0.129,0.148,0.129,0.297c0,0.15,0.131,0.15,0.131,0.15
		v0.147c0,0,0,0,0,0.148L1042.112,774.562z M1049.36,768.463c-0.261,0.15-0.391,0.299-0.521,0.299s-0.26-0.148-0.52-0.446
		c-0.129-0.298-0.26-0.447-0.26-0.595c0-0.148,0.131-0.298,0.391-0.596c0.259-0.148,0.389-0.297,0.519-0.297
		c0.13,0,0.26,0.148,0.52,0.446c0.129,0.298,0.26,0.446,0.26,0.594C1049.749,768.018,1049.618,768.316,1049.36,768.463z"/>
</g>
<g>
	<path fill="#0065BD" d="M1047.409,779.47c-0.26,0.3-0.521,0.447-0.91,0.447c-0.26,0-0.649,0-0.909,0
		c-0.261,0-0.521-0.298-0.781-0.447c-0.26-0.147-0.52-0.594-0.779-0.892c-0.131-0.298-0.26-0.446-0.391-0.742
		c-0.129-0.298-0.129-0.447-0.26-0.597c0-0.147-0.129-0.446-0.129-0.595c0-0.147,0-0.297,0-0.297c0-0.149,0-0.149,0.129-0.298
		c0-0.149,0.131-0.149,0.26-0.297c0.131,0,0.131-0.149,0.26-0.149c0.131,0,0.131,0,0.131,0h0.129c0,0,0,0,0.131,0
		c0,0,0,0.149,0,0.297c0,0.149,0,0.298,0,0.597c0,0.147,0.13,0.445,0.13,0.742c0.129,0.299,0.129,0.447,0.389,0.744
		c0.131,0.148,0.26,0.297,0.391,0.447c0.129,0.147,0.259,0.296,0.39,0.296c0.129,0,0.26,0.149,0.389,0
		c0.131,0,0.26-0.148,0.39-0.148c0.13-0.147,0.26-0.298,0.26-0.446s0.13-0.445,0-0.594c0-0.149,0-0.446-0.13-0.745
		c0-0.296-0.13-0.445-0.13-0.743c0-0.297-0.129-0.446-0.129-0.744c0-0.296,0-0.446,0-0.744c0-0.296,0.129-0.444,0.26-0.742
		c0.13-0.298,0.26-0.447,0.521-0.596c0.259-0.148,0.519-0.297,0.779-0.297s0.52,0,0.78,0c0.26,0,0.519,0.148,0.781,0.445
		c0.258,0.149,0.519,0.447,0.779,0.894c0.13,0.148,0.26,0.296,0.26,0.594c0.129,0.15,0.129,0.299,0.129,0.596
		c0,0.148,0.131,0.298,0.131,0.445c0,0.149,0,0.298,0,0.298c0,0.149,0,0.149,0,0.149s0,0,0,0.149c0,0,0,0-0.131,0.147l-0.129,0.148
		c-0.13,0-0.13,0.149-0.13,0.149h-0.13h-0.129c0,0,0,0-0.13,0c0,0,0-0.149,0-0.298c0-0.147,0-0.297,0-0.446
		c0-0.148-0.13-0.298-0.13-0.595c0-0.148-0.131-0.445-0.26-0.594c-0.129-0.15-0.26-0.299-0.391-0.448
		c-0.129-0.147-0.259-0.147-0.389-0.296c-0.13,0-0.26,0-0.39,0c-0.131,0-0.26,0.148-0.39,0.148c-0.13,0.147-0.26,0.297-0.26,0.445
		c0,0.15-0.13,0.446,0,0.596c0,0.148,0,0.445,0.13,0.743c0,0.299,0.13,0.446,0.13,0.744c0,0.297,0.13,0.446,0.13,0.744
		c0,0.297,0,0.594,0,0.744c0,0.296-0.13,0.445-0.26,0.744C1047.669,779.47,1047.669,779.323,1047.409,779.47z"/>
</g>
<g>
	<path fill="#0065BD" d="M1050.788,785.273c-0.26,0.148-0.649,0.297-0.909,0.446c-0.261,0-0.65,0-0.91-0.149
		c-0.26-0.148-0.519-0.297-0.781-0.596c-0.259-0.297-0.519-0.594-0.649-0.892c-0.129-0.298-0.26-0.447-0.39-0.744
		c-0.129-0.297-0.129-0.445-0.26-0.595c0-0.148-0.129-0.446-0.129-0.596c0-0.147,0-0.296,0-0.296c0-0.149,0-0.149,0.129-0.3
		c0-0.147,0.131-0.147,0.26-0.295c0.13,0,0.13-0.148,0.26-0.148h0.131h0.129c0,0,0,0,0.13,0.148c0,0,0,0.147,0,0.295
		c0,0.15,0,0.3,0,0.596c0,0.149,0,0.447,0.13,0.745c0,0.297,0.13,0.445,0.261,0.742c0.129,0.149,0.26,0.447,0.389,0.447
		c0.13,0.147,0.26,0.298,0.39,0.298c0.13,0,0.26,0.149,0.391,0c0.129,0,0.258-0.15,0.519-0.15c0.13-0.147,0.26-0.295,0.39-0.445
		c0-0.149,0.13-0.446,0.13-0.595s0-0.446-0.13-0.742c0-0.3-0.13-0.447-0.13-0.745s-0.129-0.594-0.129-0.744c0-0.297,0-0.445,0-0.742
		c0-0.299,0.129-0.446,0.26-0.746c0.13-0.295,0.259-0.445,0.519-0.594c0.261-0.149,0.521-0.298,0.781-0.298s0.52,0,0.78,0
		c0.259,0.148,0.519,0.298,0.779,0.446c0.261,0.298,0.521,0.595,0.781,0.893c0.129,0.148,0.129,0.299,0.26,0.596
		c0.129,0.148,0.129,0.445,0.129,0.596c0,0.148,0.129,0.296,0.129,0.443c0,0.15,0,0.3,0,0.3c0,0.148,0,0.148,0,0.148s0,0,0,0.147
		c0,0,0,0-0.129,0.149l-0.129,0.15c-0.131,0-0.131,0.147-0.131,0.147h-0.129h-0.131c0,0,0,0-0.129,0c0,0,0-0.147,0-0.298
		c0-0.149,0-0.297,0-0.445c0-0.149,0-0.3-0.131-0.595c0-0.148-0.129-0.447-0.259-0.596c-0.131-0.148-0.261-0.298-0.391-0.445
		c-0.129-0.15-0.26-0.15-0.389-0.299c-0.13,0-0.26,0-0.39,0c-0.131,0-0.26,0.148-0.391,0.148c-0.129,0.15-0.259,0.298-0.39,0.447
		c0,0.148-0.13,0.445-0.13,0.596c0,0.148,0,0.443,0.13,0.743c0,0.296,0.13,0.445,0.13,0.743s0.13,0.595,0.13,0.743
		c0,0.297,0,0.597,0,0.744c0,0.298-0.13,0.447-0.26,0.743C1051.211,784.974,1051.049,785.124,1050.788,785.273z"/>
</g>
<g>
	<path fill="#0065BD" d="M1050.788,789.438L1050.788,789.438c-0.129,0-0.129,0-0.26,0l-0.129-0.148c0,0-0.13-0.15-0.13-0.299
		s-0.13-0.148-0.13-0.296c0-0.15,0-0.15,0-0.15v-0.149c0,0,0,0,0.13-0.147l5.849-4.018c0,0,0,0,0.131,0h0.129l0.13,0.15
		c0,0,0.13,0.149,0.13,0.297c0,0.148,0.13,0.297,0.13,0.297c0,0.149,0,0.149,0,0.149v0.149c0,0,0,0-0.13,0.148L1050.788,789.438z
		 M1058.589,784.23c-0.262,0.15-0.391,0.3-0.651,0.15c-0.13,0-0.26-0.15-0.39-0.445c-0.13-0.3-0.26-0.447-0.13-0.745
		c0-0.148,0.13-0.297,0.39-0.446c0.26-0.148,0.39-0.296,0.65-0.148c0.131,0,0.26,0.148,0.39,0.446c0.13,0.297,0.26,0.446,0.13,0.743
		C1059.01,783.785,1058.847,783.935,1058.589,784.23z"/>
</g>
<g>
	<path fill="#0065BD" d="M1055.598,794.941c-0.259,0.147-0.65,0.297-0.91,0.297s-0.65,0-0.91-0.149
		c-0.26-0.147-0.519-0.296-0.779-0.596c-0.26-0.295-0.52-0.594-0.65-1.04c-0.13-0.297-0.26-0.445-0.26-0.743
		c-0.131-0.299-0.131-0.446-0.131-0.594c0-0.149,0-0.448,0-0.596s0-0.299,0-0.299c0-0.148,0-0.148,0.131-0.296
		c0.13-0.148,0.13-0.148,0.26-0.299c0.13,0,0.13-0.148,0.259-0.148h0.131h0.129c0,0,0,0,0.131,0.148c0,0,0,0.15,0,0.299
		c0,0.147,0,0.296,0,0.595c0,0.147,0,0.446,0.129,0.743c0,0.298,0.131,0.446,0.261,0.744c0.129,0.148,0.26,0.445,0.389,0.596
		c0.131,0.147,0.26,0.296,0.391,0.296c0.129,0.147,0.259,0.147,0.39,0.147c0.129,0,0.26,0,0.521-0.147
		c0.129-0.148,0.26-0.296,0.389-0.446c0.13-0.148,0.13-0.297,0.13-0.595c0-0.148,0-0.447,0-0.742c0-0.3,0-0.448-0.13-0.743
		c-0.13-0.3,0-0.596,0-0.746c0-0.296,0-0.446,0.13-0.742c0-0.299,0.13-0.446,0.26-0.745c0.131-0.148,0.391-0.444,0.65-0.595
		c0.26-0.149,0.52-0.297,0.78-0.297c0.26,0,0.52,0,0.78,0.147c0.259,0.149,0.521,0.3,0.779,0.447
		c0.26,0.148,0.521,0.596,0.649,1.042c0.131,0.148,0.131,0.296,0.26,0.594c0.131,0.299,0.131,0.447,0.131,0.595
		c0,0.148,0,0.3,0,0.447s0,0.296,0,0.296v0.15c0,0,0,0-0.131,0.149c-0.129,0.147-0.129,0-0.129,0.147l-0.131,0.147
		c-0.129,0-0.129,0.15-0.259,0.15h-0.13h-0.13l0,0c0,0,0-0.15,0-0.298s0-0.297,0-0.447c0-0.148,0-0.296-0.13-0.595
		c0-0.148-0.129-0.444-0.26-0.743c-0.129-0.147-0.26-0.445-0.39-0.445s-0.26-0.3-0.39-0.3c-0.13,0-0.26,0-0.39,0
		s-0.259,0-0.39,0.151c-0.129,0.148-0.26,0.296-0.39,0.446c0,0.147-0.13,0.446-0.13,0.595c0,0.147,0,0.447,0,0.742
		c0,0.299,0.13,0.448,0.13,0.743c0,0.299,0,0.597,0.13,0.745c0,0.297,0,0.595,0,0.743c0,0.299-0.13,0.446-0.26,0.745
		C1055.989,794.493,1055.858,794.792,1055.598,794.941z"/>
</g>
<g>
	<path fill="#0065BD" d="M1058.589,801.04c-0.262,0.148-0.651,0.296-0.911,0.296c-0.26,0-0.65,0-0.91-0.147
		c-0.26-0.148-0.519-0.299-0.779-0.595c-0.261-0.298-0.391-0.598-0.651-1.04c-0.13-0.3-0.259-0.447-0.259-0.746
		c-0.131-0.297-0.131-0.444-0.131-0.743c0-0.148,0-0.446,0-0.595c0-0.147,0-0.299,0-0.299c0-0.147,0-0.147,0.131-0.295
		c0.129-0.151,0.129-0.151,0.259-0.3c0.13,0,0.13-0.147,0.26-0.147h0.13h0.13c0,0,0,0,0.131,0.147c0,0,0,0.148,0,0.3
		c0,0.147,0,0.295,0,0.594c0,0.148,0,0.446,0.129,0.744c0,0.297,0.131,0.594,0.26,0.744c0.13,0.148,0.26,0.444,0.39,0.596
		c0.13,0.147,0.26,0.295,0.391,0.295c0.129,0.147,0.259,0.147,0.389,0.147s0.26,0,0.521-0.147c0.129-0.147,0.259-0.295,0.39-0.446
		c0.129-0.148,0.129-0.296,0.129-0.595c0-0.148,0-0.444,0-0.743c0-0.298,0-0.446-0.129-0.742c0-0.299,0-0.598,0-0.746
		c0-0.295,0-0.445,0.129-0.743c0-0.297,0.131-0.445,0.26-0.744c0.13-0.147,0.39-0.444,0.649-0.596
		c0.26-0.147,0.521-0.295,0.781-0.295c0.26,0,0.52,0,0.78,0.147c0.259,0.147,0.519,0.299,0.779,0.596
		c0.26,0.297,0.52,0.595,0.651,1.041c0.129,0.148,0.129,0.446,0.259,0.594c0,0.148,0.131,0.447,0.131,0.595c0,0.151,0,0.299,0,0.447
		s0,0.298,0,0.298v0.148c0,0,0,0-0.131,0.149c0,0-0.129,0-0.129,0.149l-0.129,0.147c-0.131,0-0.131,0.148-0.26,0.148h-0.131h-0.129
		l0,0c0,0,0-0.148,0-0.296c0-0.149,0-0.299,0-0.447c0-0.149,0-0.298-0.13-0.594c0-0.151-0.129-0.446-0.26-0.746
		c-0.129-0.147-0.26-0.445-0.389-0.594c-0.13-0.149-0.261-0.297-0.39-0.297c-0.131,0-0.26-0.149-0.39,0c-0.13,0-0.26,0-0.39,0.147
		c-0.13,0.149-0.261,0.298-0.39,0.448c-0.131,0.147-0.131,0.295-0.131,0.595c0,0.147,0,0.446,0,0.742c0,0.298,0,0.446,0.131,0.745
		c0,0.296,0,0.595,0,0.743c0,0.296,0,0.595-0.131,0.742c0,0.299-0.129,0.447-0.259,0.745
		C1059.01,800.742,1058.847,800.889,1058.589,801.04z"/>
</g>
<g>
	<path fill="#0065BD" d="M1058.361,805.204C1058.361,805.204,1058.198,805.204,1058.361,805.204c-0.131,0-0.131,0-0.26,0
		l-0.131-0.149c0-0.147-0.129-0.147-0.129-0.296c0-0.15-0.13-0.298-0.13-0.298c0-0.149,0-0.149,0-0.149v-0.149c0,0,0,0,0.13-0.148
		l6.109-3.42c0,0,0,0,0.13,0h0.13l0.13,0.148c0,0,0.13,0.147,0.13,0.298c0,0.148,0.131,0.296,0.131,0.296c0,0.149,0,0.149,0,0.149
		v0.15c0,0,0,0-0.131,0.147L1058.361,805.204z M1066.517,800.742c-0.26,0.147-0.52,0.147-0.65,0.147c-0.13,0-0.26-0.296-0.39-0.594
		c-0.13-0.3-0.13-0.595-0.13-0.742c0-0.151,0.26-0.3,0.39-0.447c0.26-0.148,0.52-0.148,0.651-0.148c0.129,0,0.259,0.296,0.39,0.596
		c0.13,0.295,0.13,0.594,0.13,0.742C1066.907,800.443,1066.809,800.593,1066.517,800.742z"/>
</g>
<g>
	<path fill="#0065BD" d="M1065.087,812.343c-0.52,0.298-1.039,0.446-1.56,0.597c-0.52,0.147-0.91,0-1.299,0
		c-0.391-0.15-0.78-0.299-1.04-0.597c-0.261-0.297-0.521-0.743-0.78-1.19c-0.13-0.148-0.13-0.445-0.13-0.596
		c0-0.147,0-0.445,0-0.594s0-0.447,0.13-0.595c0-0.298,0.13-0.446,0.259-0.743l-3.119,1.637h-0.13h-0.13l-0.129-0.15
		c0-0.148-0.131-0.148-0.131-0.297c0-0.149-0.129-0.299-0.129-0.299c0-0.147,0-0.147,0-0.147v-0.147c0,0,0,0,0.129-0.15l8.709-4.463
		h0.13h0.13l0.131,0.15c0,0,0.129,0.148,0.129,0.296c0,0.149,0.131,0.149,0.131,0.298c0,0.149,0,0.149,0,0.149v0.148
		c0,0,0,0-0.131,0.149l-0.78,0.445c0.26,0.148,0.52,0.299,0.78,0.299c0.26,0.147,0.39,0.296,0.65,0.445
		c0.13,0.148,0.391,0.297,0.52,0.444c0.129,0.151,0.26,0.448,0.39,0.597c0.26,0.445,0.26,1.041,0.26,1.486
		c0,0.447-0.13,0.894-0.39,1.191c-0.26,0.445-0.52,0.743-0.91,1.041C1065.997,811.897,1065.51,812.194,1065.087,812.343z
		 M1064.437,811.153c0.26-0.148,0.65-0.297,0.91-0.596c0.26-0.147,0.52-0.445,0.65-0.742c0.131-0.299,0.26-0.594,0.391-0.893
		c0-0.297,0-0.596-0.131-0.893c-0.129-0.148-0.129-0.298-0.26-0.445c-0.13-0.151-0.26-0.299-0.39-0.447
		c-0.13-0.148-0.39-0.298-0.521-0.298c-0.26-0.148-0.52-0.148-0.779-0.296l-2.471,1.188c-0.26,0.595-0.39,1.041-0.521,1.489
		c-0.129,0.444,0,0.742,0.131,1.188c0.129,0.298,0.26,0.595,0.52,0.743c0.26,0.149,0.521,0.298,0.779,0.298c0.26,0,0.651,0,0.91,0
		C1063.788,811.302,1064.21,811.302,1064.437,811.153z"/>
</g>
<g>
	<path fill="#0065BD" d="M1067.817,822.159c-0.519,0.15-1.04,0.299-1.56,0.299c-0.52,0-0.91,0-1.299-0.148
		c-0.391-0.15-0.781-0.445-1.041-0.744c-0.26-0.296-0.519-0.744-0.65-1.338c0-0.149-0.129-0.446-0.129-0.596
		c0-0.147,0-0.445,0-0.595s0.129-0.446,0.129-0.595c0.131-0.149,0.131-0.447,0.26-0.744l-3.25,1.189h-0.13c0,0-0.13,0-0.13-0.148
		l-0.13-0.148c0-0.148-0.131-0.148-0.131-0.298c0-0.147,0-0.298-0.129-0.298c0-0.147,0-0.147,0-0.297v-0.147c0,0,0,0,0.129,0
		l9.1-3.274h0.13c0,0,0,0,0.13,0c0,0,0,0.15,0.13,0.15c0,0,0,0.147,0.129,0.297c0,0.148,0,0.148,0.131,0.298
		c0,0.148,0,0.148,0,0.148v0.148c0,0,0,0-0.131,0l-0.91,0.297c0.26,0.15,0.521,0.298,0.651,0.447
		c0.259,0.149,0.39,0.297,0.519,0.446c0.131,0.147,0.26,0.298,0.391,0.596c0.129,0.147,0.26,0.446,0.26,0.743
		c0.13,0.595,0.13,1.04,0.13,1.486c-0.13,0.447-0.26,0.894-0.521,1.191c-0.26,0.296-0.521,0.594-0.91,0.892
		C1068.76,821.713,1068.337,822.011,1067.817,822.159z M1067.298,820.821c0.389-0.148,0.649-0.296,0.909-0.445
		c0.259-0.148,0.52-0.298,0.78-0.595s0.389-0.447,0.389-0.744c0.131-0.298,0.131-0.595,0-0.892c0-0.15-0.129-0.298-0.259-0.447
		c-0.13-0.147-0.26-0.297-0.391-0.446c-0.129-0.147-0.39-0.298-0.52-0.445c-0.26-0.15-0.52-0.298-0.78-0.447l-2.6,0.893
		c-0.26,0.596-0.519,1.041-0.65,1.339c-0.129,0.446-0.129,0.743,0,1.19c0.131,0.297,0.26,0.595,0.52,0.744
		c0.261,0.147,0.521,0.296,0.78,0.445c0.26,0,0.52,0.148,0.911,0C1066.809,820.97,1067.037,820.821,1067.298,820.821z"/>
</g>
<g>
	<path fill="#0065BD" d="M1065.607,827.367L1065.607,827.367c-0.13,0-0.13,0-0.26-0.149c0,0,0-0.148-0.129-0.148
		c0-0.149-0.131-0.149-0.131-0.298c0-0.147,0-0.297-0.129-0.297c0-0.149,0-0.149,0-0.298v-0.148c0,0,0,0,0.129,0l6.5-2.231h0.129
		c0,0,0.131,0,0.131,0.149l0.129,0.148c0,0.148,0.131,0.148,0.131,0.297c0,0.149,0,0.298,0.129,0.298c0,0.147,0,0.147,0,0.299
		c0,0.147,0,0.147,0,0.147s0,0-0.129,0L1065.607,827.367z M1074.447,824.541c-0.26,0.148-0.521,0.148-0.651,0
		c-0.129-0.149-0.259-0.298-0.39-0.595c-0.13-0.298-0.13-0.596,0-0.745c0.131-0.148,0.26-0.296,0.521-0.296
		c0.26-0.149,0.521-0.149,0.649,0c0.13,0.147,0.26,0.296,0.39,0.594c0.13,0.298,0.13,0.596,0,0.744
		C1074.836,824.391,1074.706,824.541,1074.447,824.541z"/>
</g>
</svg>
