<?xml version="1.0" encoding="UTF-8" standalone="no"?>
<!-- Created with Inkscape (http://www.inkscape.org/) -->

<svg
   xmlns:dc="http://purl.org/dc/elements/1.1/"
   xmlns:cc="http://creativecommons.org/ns#"
   xmlns:rdf="http://www.w3.org/1999/02/22-rdf-syntax-ns#"
   xmlns:svg="http://www.w3.org/2000/svg"
   xmlns="http://www.w3.org/2000/svg"
   xmlns:sodipodi="http://sodipodi.sourceforge.net/DTD/sodipodi-0.dtd"
   xmlns:inkscape="http://www.inkscape.org/namespaces/inkscape"
   width="260"
   height="380"
   viewBox="0 0 68.79167 100.54167"
   version="1.1"
   id="svg4540"
   inkscape:version="0.92.4 (5da689c313, 2019-01-14)"
   sodipodi:docname="position.svg">
  <defs
     id="defs4534">
    <marker
       inkscape:stockid="Arrow2Send"
       orient="auto"
       refY="0"
       refX="0"
       id="Arrow2Send"
       style="overflow:visible"
       inkscape:isstock="true">
      <path
         id="path8321"
         style="fill:#343a40;fill-opacity:1;fill-rule:evenodd;stroke:#343a40;stroke-width:0.625;stroke-linejoin:round;stroke-opacity:1"
         d="M 8.7185878,4.0337352 -2.2072895,0.01601326 8.7185884,-4.0017078 c -1.7454984,2.3720609 -1.7354408,5.6174519 -6e-7,8.035443 z"
         transform="matrix(-0.3,0,0,-0.3,0.69,0)"
         inkscape:connector-curvature="0" />
    </marker>
    <marker
       inkscape:stockid="Arrow2Sstart"
       orient="auto"
       refY="0"
       refX="0"
       id="Arrow2Sstart"
       style="overflow:visible"
       inkscape:isstock="true">
      <path
         id="path8318"
         style="fill:#343a40;fill-opacity:1;fill-rule:evenodd;stroke:#343a40;stroke-width:0.625;stroke-linejoin:round;stroke-opacity:1"
         d="M 8.7185878,4.0337352 -2.2072895,0.01601326 8.7185884,-4.0017078 c -1.7454984,2.3720609 -1.7354408,5.6174519 -6e-7,8.035443 z"
         transform="matrix(0.3,0,0,0.3,-0.69,0)"
         inkscape:connector-curvature="0" />
    </marker>
    <marker
       inkscape:stockid="Arrow2Lend"
       orient="auto"
       refY="0"
       refX="0"
       id="Arrow2Lend"
       style="overflow:visible"
       inkscape:isstock="true">
      <path
         id="path8309"
         style="fill:#343a40;fill-opacity:1;fill-rule:evenodd;stroke:#343a40;stroke-width:0.625;stroke-linejoin:round;stroke-opacity:1"
         d="M 8.7185878,4.0337352 -2.2072895,0.01601326 8.7185884,-4.0017078 c -1.7454984,2.3720609 -1.7354408,5.6174519 -6e-7,8.035443 z"
         transform="matrix(-1.1,0,0,-1.1,-1.1,0)"
         inkscape:connector-curvature="0" />
    </marker>
    <marker
       inkscape:stockid="Arrow2Lstart"
       orient="auto"
       refY="0"
       refX="0"
       id="Arrow2Lstart"
       style="overflow:visible"
       inkscape:isstock="true">
      <path
         id="path8306"
         style="fill:#343a40;fill-opacity:1;fill-rule:evenodd;stroke:#343a40;stroke-width:0.625;stroke-linejoin:round;stroke-opacity:1"
         d="M 8.7185878,4.0337352 -2.2072895,0.01601326 8.7185884,-4.0017078 c -1.7454984,2.3720609 -1.7354408,5.6174519 -6e-7,8.035443 z"
         transform="matrix(1.1,0,0,1.1,1.1,0)"
         inkscape:connector-curvature="0" />
    </marker>
    <marker
       inkscape:stockid="Arrow2Sstart"
       orient="auto"
       refY="0"
       refX="0"
       id="Arrow2Sstart-7"
       style="overflow:visible"
       inkscape:isstock="true">
      <path
         id="path8318-8"
         style="fill:#a2ad00;fill-opacity:1;fill-rule:evenodd;stroke:#a2ad00;stroke-width:0.625;stroke-linejoin:round;stroke-opacity:1"
         d="M 8.7185878,4.0337352 -2.2072895,0.01601326 8.7185884,-4.0017078 c -1.7454984,2.3720609 -1.7354408,5.6174519 -6e-7,8.035443 z"
         transform="matrix(0.3,0,0,0.3,-0.69,0)"
         inkscape:connector-curvature="0" />
    </marker>
    <marker
       inkscape:stockid="Arrow2Send"
       orient="auto"
       refY="0"
       refX="0"
       id="Arrow2Send-1"
       style="overflow:visible"
       inkscape:isstock="true">
      <path
         id="path8321-2"
         style="fill:#a2ad00;fill-opacity:1;fill-rule:evenodd;stroke:#a2ad00;stroke-width:0.625;stroke-linejoin:round;stroke-opacity:1"
         d="M 8.7185878,4.0337352 -2.2072895,0.01601326 8.7185884,-4.0017078 c -1.7454984,2.3720609 -1.7354408,5.6174519 -6e-7,8.035443 z"
         transform="matrix(-0.3,0,0,-0.3,0.69,0)"
         inkscape:connector-curvature="0" />
    </marker>
    <marker
       inkscape:stockid="Arrow2Sstart"
       orient="auto"
       refY="0"
       refX="0"
       id="Arrow2Sstart-0"
       style="overflow:visible"
       inkscape:isstock="true">
      <path
         id="path8318-7"
         style="fill:#a2ad00;fill-opacity:1;fill-rule:evenodd;stroke:#a2ad00;stroke-width:0.625;stroke-linejoin:round;stroke-opacity:1"
         d="M 8.7185878,4.0337352 -2.2072895,0.01601326 8.7185884,-4.0017078 c -1.7454984,2.3720609 -1.7354408,5.6174519 -6e-7,8.035443 z"
         transform="matrix(0.3,0,0,0.3,-0.69,0)"
         inkscape:connector-curvature="0" />
    </marker>
    <marker
       inkscape:stockid="Arrow2Send"
       orient="auto"
       refY="0"
       refX="0"
       id="Arrow2Send-9"
       style="overflow:visible"
       inkscape:isstock="true">
      <path
         id="path8321-0"
         style="fill:#a2ad00;fill-opacity:1;fill-rule:evenodd;stroke:#a2ad00;stroke-width:0.625;stroke-linejoin:round;stroke-opacity:1"
         d="M 8.7185878,4.0337352 -2.2072895,0.01601326 8.7185884,-4.0017078 c -1.7454984,2.3720609 -1.7354408,5.6174519 -6e-7,8.035443 z"
         transform="matrix(-0.3,0,0,-0.3,0.69,0)"
         inkscape:connector-curvature="0" />
    </marker>
    <marker
       inkscape:stockid="Arrow2Sstart"
       orient="auto"
       refY="0"
       refX="0"
       id="Arrow2Sstart-3"
       style="overflow:visible"
       inkscape:isstock="true">
      <path
         id="path8318-4"
         style="fill:#a2ad00;fill-opacity:1;fill-rule:evenodd;stroke:#a2ad00;stroke-width:0.625;stroke-linejoin:round;stroke-opacity:1"
         d="M 8.7185878,4.0337352 -2.2072895,0.01601326 8.7185884,-4.0017078 c -1.7454984,2.3720609 -1.7354408,5.6174519 -6e-7,8.035443 z"
         transform="matrix(0.3,0,0,0.3,-0.69,0)"
         inkscape:connector-curvature="0" />
    </marker>
    <marker
       inkscape:stockid="Arrow2Send"
       orient="auto"
       refY="0"
       refX="0"
       id="Arrow2Send-8"
       style="overflow:visible"
       inkscape:isstock="true">
      <path
         id="path8321-8"
         style="fill:#a2ad00;fill-opacity:1;fill-rule:evenodd;stroke:#a2ad00;stroke-width:0.625;stroke-linejoin:round;stroke-opacity:1"
         d="M 8.7185878,4.0337352 -2.2072895,0.01601326 8.7185884,-4.0017078 c -1.7454984,2.3720609 -1.7354408,5.6174519 -6e-7,8.035443 z"
         transform="matrix(-0.3,0,0,-0.3,0.69,0)"
         inkscape:connector-curvature="0" />
    </marker>
    <marker
       inkscape:stockid="Arrow2Sstart"
       orient="auto"
       refY="0"
       refX="0"
       id="Arrow2Sstart-71"
       style="overflow:visible"
       inkscape:isstock="true">
      <path
         id="path8318-0"
         style="fill:#a2ad00;fill-opacity:1;fill-rule:evenodd;stroke:#a2ad00;stroke-width:0.625;stroke-linejoin:round;stroke-opacity:1"
         d="M 8.7185878,4.0337352 -2.2072895,0.01601326 8.7185884,-4.0017078 c -1.7454984,2.3720609 -1.7354408,5.6174519 -6e-7,8.035443 z"
         transform="matrix(0.3,0,0,0.3,-0.69,0)"
         inkscape:connector-curvature="0" />
    </marker>
    <marker
       inkscape:stockid="Arrow2Send"
       orient="auto"
       refY="0"
       refX="0"
       id="Arrow2Send-6"
       style="overflow:visible"
       inkscape:isstock="true">
      <path
         id="path8321-3"
         style="fill:#a2ad00;fill-opacity:1;fill-rule:evenodd;stroke:#a2ad00;stroke-width:0.625;stroke-linejoin:round;stroke-opacity:1"
         d="M 8.7185878,4.0337352 -2.2072895,0.01601326 8.7185884,-4.0017078 c -1.7454984,2.3720609 -1.7354408,5.6174519 -6e-7,8.035443 z"
         transform="matrix(-0.3,0,0,-0.3,0.69,0)"
         inkscape:connector-curvature="0" />
    </marker>
  </defs>
  <sodipodi:namedview
     id="base"
     pagecolor="#ffffff"
     bordercolor="#666666"
     borderopacity="1.0"
     inkscape:pageopacity="0.0"
     inkscape:pageshadow="2"
     inkscape:zoom="1.4"
     inkscape:cx="25.533908"
     inkscape:cy="194.51128"
     inkscape:document-units="px"
     inkscape:current-layer="layer1"
     showgrid="false"
     inkscape:snap-nodes="true"
     inkscape:snap-intersection-paths="false"
     inkscape:snap-bbox="true"
     inkscape:window-width="1600"
     inkscape:window-height="847"
     inkscape:window-x="-8"
     inkscape:window-y="-8"
     inkscape:window-maximized="1"
     inkscape:object-paths="false"
     inkscape:snap-smooth-nodes="true"
     inkscape:object-nodes="false"
     units="px"
     showguides="true"
     inkscape:guide-bbox="true">
    <sodipodi:guide
       position="34.206846,115.28274"
       orientation="1,0"
       id="guide46"
       inkscape:locked="false" />
  </sodipodi:namedview>
  <metadata
     id="metadata4537">
    <rdf:RDF>
      <cc:Work
         rdf:about="">
        <dc:format>image/svg+xml</dc:format>
        <dc:type
           rdf:resource="http://purl.org/dc/dcmitype/StillImage" />
        <dc:title></dc:title>
      </cc:Work>
    </rdf:RDF>
  </metadata>
  <g
     inkscape:label="Ebene 1"
     inkscape:groupmode="layer"
     id="layer1"
     transform="translate(0,-196.45831)"
     style="display:inline">
    <g
       transform="matrix(0.00118431,-0.70541503,0.77680672,0.00138764,-154.56543,296.05479)"
       id="g1711">
      <path
         inkscape:connector-curvature="0"
         id="path10014"
         d="M 15.660082,219.4962 H 127.51158"
         style="fill:none;stroke:#adb5bd;stroke-width:1.01334453;stroke-miterlimit:4;stroke-dasharray:4.0533782, 2.02668911;stroke-dashoffset:0" />
      <path
         inkscape:connector-curvature="0"
         id="path10012"
         d="M 15.764195,242.94342 H 127.61578"
         style="fill:none;stroke:#adb5bd;stroke-width:1.01293123;stroke-miterlimit:4;stroke-dasharray:none;stroke-dashoffset:0" />
      <path
         inkscape:connector-curvature="0"
         id="path2"
         d="M 15.675996,264.43817 H 127.52749"
         style="fill:none;stroke:#adb5bd;stroke-width:1.01334453;stroke-miterlimit:4;stroke-dasharray:4.0533782, 2.02668911;stroke-dashoffset:0" />
      <path
         inkscape:label="path6"
         style="fill:#a2ad00;fill-opacity:1;stroke:#a2ad00;stroke-width:0.88087302;stroke-miterlimit:4;stroke-dasharray:0.88087298, 0.88087298;stroke-dashoffset:0;stroke-opacity:1;marker-start:url(#Arrow2Sstart-7);marker-end:url(#Arrow2Send-1)"
         sodipodi:nodetypes="cc"
         inkscape:connector-curvature="0"
         id="path6"
         d="m 72.504361,221.09016 0.394269,41.82798" />
    </g>
    <g
       transform="matrix(0.00870547,0.69706245,0.72260316,-0.00839777,-142.78474,197.15099)"
       id="g1646">
      <path
         sodipodi:nodetypes="cccc"
         id="path14"
         d="m 143.57807,200.08125 c -26.51295,4.69157 -53.806016,20.33476 -70.300131,42.31104 m -3.037919,3.61166 C 58.309907,265.25998 44.145269,273.92326 6.8119976,287.66752"
         style="fill:none;stroke:#0065bd;stroke-width:3.07599998;stroke-linecap:butt;stroke-miterlimit:4;stroke-dasharray:none"
         inkscape:connector-curvature="0" />
      <path
         sodipodi:open="true"
         d="m 73.743964,245.1592 a 2.3396609,2.382304 0 0 1 -3.135378,1.07634 2.3396609,2.382304 0 0 1 -1.057083,-3.19252 2.3396609,2.382304 0 0 1 3.135374,-1.07636 2.3396609,2.382304 0 0 1 1.057095,3.19252"
         sodipodi:end="0.46021397"
         sodipodi:start="0.4602223"
         sodipodi:ry="2.382304"
         sodipodi:rx="2.3396609"
         sodipodi:cy="244.1011"
         sodipodi:cx="71.647736"
         sodipodi:type="arc"
         id="path8267"
         style="opacity:1;fill:none;fill-opacity:1;stroke:#0065bd;stroke-width:1.5;stroke-miterlimit:4;stroke-dasharray:none;stroke-dashoffset:0;stroke-opacity:1" />
    </g>
  </g>
  <text
     xml:space="preserve"
     style="font-style:normal;font-weight:normal;font-size:3.32876515px;line-height:1.25000012;font-family:sans-serif;letter-spacing:0px;word-spacing:0px;baseline-shift:baseline;fill:#000000;fill-opacity:1;stroke:none;stroke-width:0.18779314"
     x="39.327866"
     y="56.921852"
     id="text10018"
     transform="scale(1.0181555,0.98216825)"><tspan
       sodipodi:role="line"
       id="tspan10016"
       x="39.327866"
       y="56.921852"
       style="font-size:3.32876515px;stroke-width:0.18779314">+ m<tspan
   style="font-size:3.32876515px;baseline-shift:sub;stroke-width:0.18779314"
   id="tspan10614">L</tspan></tspan></text>
  <text
     xml:space="preserve"
     style="font-style:normal;font-weight:normal;font-size:3.00469017px;line-height:1.25000012;font-family:sans-serif;letter-spacing:0px;word-spacing:0px;baseline-shift:baseline;fill:#000000;fill-opacity:1;stroke:none;stroke-width:0.18779314"
     x="22.279419"
     y="42.983406"
     id="text10018-9"
     transform="scale(1.0181555,0.98216825)"
     inkscape:label="text10018-9"><tspan
       sodipodi:role="line"
       id="tspan10016-1"
       x="22.279419"
       y="42.983406"
       style="font-size:3.32876515px;stroke-width:0.18779314">- m<tspan
   style="font-size:3.32876515px;baseline-shift:sub;stroke-width:0.18779314"
   id="tspan10616">L</tspan></tspan></text>
  <g
     inkscape:groupmode="layer"
     id="layer2"
     inkscape:label="Ebene 2"
     transform="translate(0,-196.45831)"
     style="display:inline" />
</svg>
