<svg xmlns="http://www.w3.org/2000/svg" width="500" height="120" viewBox="0 0 250 60" fill="#343a40">
  <path d="M105.64,22.88a6.07,6.07,0,0,0-3.47-5.59,4.3,4.3,0,0,0-4.34-4,4.15,4.15,0,0,0-1,.21,4.16,4.16,0,0,0-6.94-2.71h0a4.34,4.34,0,0,0-8.67,0s.14.07.14.17a4.23,4.23,0,0,0-6.94,2.57,5.24,5.24,0,0,0-6.56,6.94,5.17,5.17,0,0,0,0,10,5.17,5.17,0,0,0,10-.8,4.23,4.23,0,0,0,2.26,1V48L74.41,51.5H91.76L86.21,48V41.09a23.6,23.6,0,0,1,9.61-6.94A5.17,5.17,0,0,0,102.17,29a5.11,5.11,0,0,0,0-.56A6.07,6.07,0,0,0,105.64,22.88ZM86.21,38.52V26.59a5.31,5.31,0,0,0,4.61,2.71h1a5.17,5.17,0,0,0,2,3.89A25.16,25.16,0,0,0,86.21,38.52Z"/>
  <path d="M183.61,6.94c-7.15,0-15.5,4.37-15.5,15.5,0,7.55,11.92,24.24,15.5,28.62,3.18-4.37,15.5-20.67,15.5-28.62C199.11,11.31,190.76,6.94,183.61,6.94Z"/>
  <path d="M31.48,6.5l-26,12.12,6.92,3.12v5.88a5.12,5.12,0,0,0,0,9.69v.35L9.33,44.92C8.29,48,9,51.5,14.17,51.5S20.06,48,19,44.92L15.9,37.65a5.67,5.67,0,0,0,3.46-5.19,4.89,4.89,0,0,0-3.46-4.85V23.46l15.58,7.27,26-12.12ZM46.71,29,31.13,35.92l-8.31-3.81v.35a8.67,8.67,0,0,1-2.77,6.23l2.08,4.85v.35A8.52,8.52,0,0,1,22.48,48a21.38,21.38,0,0,0,8.65,1.73c11.42,0,15.58-6.92,15.58-10.38V29Z"/>
  <path d="M235.48,18.5h-21a3,3,0,0,1-3-3V8a1.5,1.5,0,0,1,3,0v4.5h3v-3a3,3,0,0,1,6,0v3h3v-3a3,3,0,0,1,6,0v3h3V8a1.5,1.5,0,0,1,3,0v7.5A3,3,0,0,1,235.48,18.5Zm9,31.5a1.5,1.5,0,0,1-1.5,1.5H207a1.5,1.5,0,0,1,0-3h1.5a3,3,0,0,0,3-3s3-18,3-21a3,3,0,0,1,3-3h15a3,3,0,0,1,3,3c0,3,3,21,3,21a3,3,0,0,0,3,3H243a1.5,1.5,0,0,1,1.5,1.47Zm-15-12a4.5,4.5,0,0,0-9,0V48.5h9Z"/>
  <path d="M133.5,6.5A3.27,3.27,0,0,0,130,10V23.81H116.19a3.27,3.27,0,0,0-3.46,3.46v3.46a3.27,3.27,0,0,0,3.46,3.46H130V48a3.27,3.27,0,0,0,3.46,3.46H137A3.27,3.27,0,0,0,140.42,48V34.19h13.85a3.27,3.27,0,0,0,3.46-3.46V27.27a3.27,3.27,0,0,0-3.46-3.46H140.42V10A3.27,3.27,0,0,0,137,6.5Z"/>
</svg>
