<?xml version="1.0" encoding="utf-8"?>
<svg version="1.1" id="svg1" xmlns:svg="http://www.w3.org/2000/svg"
	 xmlns="http://www.w3.org/2000/svg" xmlns:xlink="http://www.w3.org/1999/xlink" x="0px" y="0px" width="1275px" height="354px"
	 viewBox="0 0 1275 354" enable-background="new 0 0 1275 354" xml:space="preserve">
<rect id="rect1" x="193.484" y="13.812" fill="none" stroke="#0065BD" width="429.828" height="289.649"/>
<rect id="rect2" x="652.509" y="11.138" fill="none" stroke="#0065BD" width="443.091" height="289.649"/>
<g enable-background="new    ">
	<path fill="#A2AD00" d="M928.103,167.168c4.681,5.127,8.805,9.026,12.147,11.701c3.452,2.676,6.687,4.68,9.694,5.906v2.341
		c-3.456,1.673-6.91,3.899-10.143,6.462c-3.23,2.676-7.243,6.465-11.813,11.592h-4.012c3.343-7.133,6.798-12.594,10.475-16.381
		H849.98v-5.352h84.472c-2.674-3.455-4.566-6.019-5.57-7.578c-1.003-1.56-2.676-4.569-4.683-8.692H928.103L928.103,167.168z"/>
</g>
<g enable-background="new    ">
	<path fill="#A2AD00" d="M801.84,272.258v-23.068h3.456v3.23c0.777-1.113,1.671-2.006,2.896-2.785
		c1.228-0.668,2.563-1.004,4.124-1.004c1.671,0,3.12,0.336,4.234,1.115c1.114,0.668,1.895,1.672,2.34,3.008
		c1.783-2.674,4.234-4.012,7.133-4.012c2.34,0,4.011,0.67,5.237,1.896c1.226,1.226,1.896,3.229,1.896,5.903v15.826h-3.898v-14.712
		c0-1.561-0.112-2.674-0.336-3.344c-0.224-0.668-0.668-1.227-1.336-1.672c-0.67-0.445-1.45-0.668-2.343-0.668
		c-1.672,0-3.01,0.557-4.012,1.672c-1.114,1.113-1.561,2.785-1.561,5.236v13.484h-3.9V257.32c0-1.783-0.334-3.01-1.002-3.898
		c-0.67-0.895-1.672-1.34-3.122-1.34c-1.114,0-2.116,0.336-3.008,0.895c-0.895,0.558-1.563,1.447-2.007,2.563
		c-0.445,1.113-0.668,2.674-0.668,4.791v12.037h-4.124L801.84,272.258L801.84,272.258z"/>
	<path fill="#A2AD00" d="M837.5,260.668c0-4.234,1.228-7.469,3.565-9.475c2.006-1.67,4.458-2.563,7.244-2.563
		c3.231,0,5.795,1.004,7.801,3.121s3.009,4.902,3.009,8.58c0,3.01-0.444,5.352-1.337,7.021c-0.892,1.672-2.229,3.008-3.898,4.012
		c-1.672,0.893-3.566,1.447-5.572,1.447c-3.232,0-5.906-1.002-7.801-3.119C838.505,267.576,837.5,264.566,837.5,260.668z
		 M841.514,260.668c0,3.008,0.669,5.125,1.894,6.688c1.338,1.445,2.898,2.229,4.904,2.229c1.895,0,3.565-0.783,4.903-2.229
		c1.337-1.449,1.894-3.789,1.894-6.799c0-2.897-0.668-5.016-1.894-6.465c-1.337-1.447-2.897-2.229-4.792-2.229
		c-2.008,0-3.565,0.779-4.903,2.229C842.183,255.541,841.514,257.771,841.514,260.668z"/>
	<path fill="#A2AD00" d="M870.154,272.258l-8.803-23.068h4.123l5.015,13.818c0.56,1.449,1.003,3.008,1.449,4.68
		c0.334-1.227,0.78-2.674,1.448-4.346l5.126-14.152h4.013l-8.805,23.068H870.154z"/>
	<path fill="#A2AD00" d="M901.803,264.791l4.012,0.445c-0.668,2.34-1.782,4.233-3.566,5.461c-1.671,1.336-3.898,2.004-6.572,2.004
		c-3.344,0-6.021-1.002-8.024-3.117c-2.005-2.119-3.009-5.018-3.009-8.807c0-3.898,1.004-6.908,3.009-9.025
		c2.006-2.117,4.569-3.23,7.802-3.23c3.12,0,5.571,1.004,7.577,3.119c2.006,2.117,2.898,5.016,2.898,8.916c0,0.223,0,0.558,0,1.002
		h-17.273c0.111,2.563,0.894,4.457,2.117,5.797c1.337,1.336,2.897,2.004,4.791,2.004c1.45,0,2.676-0.332,3.679-1.112
		C900.466,267.688,901.244,266.461,901.803,264.791z M888.988,258.439h12.927c-0.223-1.896-0.668-3.455-1.446-4.349
		c-1.228-1.562-2.897-2.229-4.904-2.229c-1.782,0-3.343,0.558-4.568,1.783C889.77,254.871,889.099,256.434,888.988,258.439z"/>
	<path fill="#A2AD00" d="M924.092,272.258v-20.061h-3.455v-3.01h3.455v-2.451c0-1.562,0.108-2.674,0.443-3.454
		c0.335-1.003,1.003-1.896,2.008-2.452c1.003-0.668,2.229-0.893,4.012-0.893c1.114,0,2.34,0.112,3.678,0.444l-0.558,3.455
		c-0.78-0.11-1.562-0.223-2.341-0.223c-1.227,0-2.007,0.223-2.563,0.78c-0.446,0.558-0.78,1.447-0.78,2.896v2.116h4.457v3.009
		h-4.457v20.061h-3.898V272.258L924.092,272.258z"/>
	<path fill="#A2AD00" d="M950.615,269.473c-1.448,1.227-2.896,2.115-4.232,2.563c-1.338,0.558-2.786,0.779-4.349,0.779
		c-2.563,0-4.458-0.668-5.904-1.895c-1.34-1.227-2.008-2.787-2.008-4.793c0-1.113,0.225-2.115,0.78-3.119
		c0.56-0.894,1.228-1.672,2.006-2.229c0.78-0.559,1.782-1.004,2.786-1.338c0.78-0.225,1.896-0.444,3.454-0.559
		c3.121-0.334,5.461-0.779,7.021-1.338c0-0.557,0-0.893,0-1.002c0-1.561-0.335-2.675-1.113-3.346
		c-1.004-0.889-2.452-1.336-4.458-1.336c-1.896,0-3.232,0.334-4.123,1.004c-0.894,0.668-1.563,1.783-1.896,3.453l-3.79-0.557
		c0.334-1.673,0.894-3.011,1.674-4.013c0.778-1.002,2.006-1.783,3.454-2.341c1.561-0.559,3.23-0.78,5.236-0.78
		c2.007,0,3.566,0.224,4.793,0.668c1.227,0.446,2.116,1.004,2.674,1.785c0.559,0.668,1.005,1.56,1.229,2.674
		c0.11,0.668,0.222,1.896,0.222,3.565v5.236c0,3.68,0.112,5.906,0.225,6.91c0.224,1.002,0.444,1.895,1.004,2.785h-4.124
		C951.061,271.479,950.727,270.475,950.615,269.473z M950.281,260.668c-1.448,0.559-3.564,1.113-6.353,1.446
		c-1.563,0.226-2.786,0.446-3.454,0.782c-0.67,0.332-1.229,0.668-1.563,1.225c-0.334,0.559-0.558,1.227-0.558,1.895
		c0,1.004,0.446,1.896,1.226,2.564c0.78,0.668,1.896,1.004,3.455,1.004c1.562,0,2.897-0.336,4.014-1.004
		c1.227-0.668,2.006-1.563,2.563-2.676c0.446-0.893,0.67-2.229,0.67-3.9V260.668L950.281,260.668z"/>
	<path fill="#A2AD00" d="M958.747,265.348l3.9-0.557c0.225,1.561,0.78,2.785,1.784,3.564c1.002,0.78,2.34,1.229,4.123,1.229
		s3.12-0.336,4.012-1.115c0.894-0.781,1.337-1.562,1.337-2.563c0-0.893-0.334-1.562-1.112-2.118
		c-0.559-0.332-1.896-0.779-4.015-1.336c-2.896-0.779-4.9-1.338-6.017-1.896c-1.114-0.559-2.006-1.227-2.563-2.229
		c-0.557-0.892-0.892-2.007-0.892-3.119c0-1.004,0.223-2.008,0.669-2.896c0.445-0.894,1.114-1.562,1.895-2.229
		c0.56-0.447,1.449-0.781,2.451-1.115c1.003-0.334,2.229-0.444,3.343-0.444c1.784,0,3.456,0.223,4.795,0.778
		c1.337,0.558,2.34,1.228,3.008,2.117c0.67,0.894,1.113,2.117,1.338,3.565l-3.788,0.558c-0.224-1.228-0.67-2.115-1.563-2.785
		c-0.778-0.67-2.006-1.002-3.564-1.002c-1.783,0-3.12,0.332-3.9,0.892c-0.78,0.557-1.114,1.338-1.114,2.117
		c0,0.557,0.11,1.004,0.446,1.338c0.334,0.444,0.78,0.778,1.448,1.002c0.446,0.11,1.561,0.444,3.454,1.004
		c2.786,0.778,4.681,1.336,5.795,1.781c1.114,0.446,2.006,1.114,2.563,2.008c0.669,0.893,0.893,2.006,0.893,3.344
		c0,1.336-0.334,2.563-1.114,3.678c-0.779,1.113-1.894,2.006-3.343,2.674c-1.449,0.67-3.009,0.893-4.903,0.893
		c-3.009,0-5.237-0.668-6.909-1.895C960.198,269.693,959.196,267.799,958.747,265.348z"/>
	<path fill="#A2AD00" d="M991.179,268.801l0.558,3.457c-1.114,0.223-2.118,0.334-3.009,0.334c-1.449,0-2.563-0.223-3.344-0.668
		s-1.337-1.004-1.672-1.783c-0.334-0.781-0.445-2.229-0.445-4.682v-13.262h-2.897v-3.01h2.897v-5.685l3.9-2.34v8.022h3.898v3.01
		h-3.898v13.484c0,1.113,0.109,1.781,0.223,2.115s0.334,0.559,0.668,0.781c0.336,0.221,0.78,0.334,1.338,0.334
		C989.95,268.914,990.51,268.914,991.179,268.801z"/>
	<path fill="#A2AD00" d="M994.968,272.258v-31.873h3.898v31.873H994.968z"/>
	<path fill="#A2AD00" d="M1004.776,281.172l-0.446-3.678c0.894,0.223,1.563,0.334,2.229,0.334c0.892,0,1.561-0.111,2.118-0.443
		c0.557-0.336,1.002-0.67,1.336-1.228c0.224-0.444,0.67-1.339,1.227-2.897c0.111-0.223,0.226-0.559,0.334-1.002l-8.804-23.181h4.234
		l4.793,13.373c0.668,1.671,1.226,3.454,1.672,5.349c0.442-1.783,1.002-3.564,1.559-5.236l4.904-13.483h3.9l-8.807,23.514
		c-0.891,2.563-1.671,4.235-2.229,5.238c-0.668,1.338-1.448,2.229-2.342,2.785c-0.891,0.559-2.006,0.893-3.23,0.893
		C1006.558,281.617,1005.666,281.506,1004.776,281.172z"/>
</g>
<g enable-background="new    ">
	<path fill="#A2AD00" d="M668.334,115.395v-11.59h1.78v1.672c0.335-0.558,0.894-1.003,1.449-1.338
		c0.557-0.334,1.337-0.557,2.007-0.557c0.893,0,1.562,0.223,2.116,0.557c0.558,0.334,0.892,0.892,1.114,1.449
		c0.892-1.337,2.118-2.006,3.564-2.006c1.114,0,2.006,0.334,2.678,1.003c0.668,0.669,0.891,1.56,0.891,2.897v7.913h-1.896v-7.244
		c0-0.78-0.109-1.337-0.223-1.672s-0.335-0.668-0.669-0.78c-0.334-0.111-0.78-0.334-1.225-0.334c-0.78,0-1.45,0.223-2.009,0.78
		c-0.558,0.557-0.777,1.449-0.777,2.563v6.687h-2.007v-7.467c0-0.891-0.111-1.56-0.445-2.006c-0.335-0.445-0.894-0.668-1.563-0.668
		c-0.558,0-1.112,0.111-1.561,0.445c-0.445,0.335-0.779,0.669-1.003,1.226c-0.223,0.557-0.334,1.337-0.334,2.452v6.018H668.334z"/>
	<path fill="#A2AD00" d="M686.163,109.6c0-2.118,0.559-3.678,1.782-4.792c1.003-0.892,2.229-1.337,3.678-1.337
		c1.563,0,2.897,0.557,3.9,1.56c1.003,1.003,1.563,2.452,1.563,4.347c0,1.448-0.226,2.674-0.67,3.454
		c-0.444,0.78-1.113,1.561-1.896,2.006c-0.782,0.445-1.782,0.668-2.786,0.668c-1.671,0-2.896-0.557-3.9-1.561
		C686.831,112.941,686.163,111.605,686.163,109.6z M688.171,109.6c0,1.449,0.334,2.563,1.003,3.343
		c0.668,0.78,1.446,1.115,2.452,1.115c1.002,0,1.78-0.334,2.448-1.115c0.67-0.779,1.005-1.894,1.005-3.343
		c0-1.449-0.334-2.563-1.005-3.232c-0.668-0.669-1.446-1.114-2.448-1.114c-1.006,0-1.784,0.334-2.452,1.114
		C688.505,107.147,688.171,108.15,688.171,109.6z"/>
	<path fill="#A2AD00" d="M702.547,115.395l-4.349-11.59h2.117l2.452,6.909c0.223,0.78,0.558,1.56,0.779,2.34
		c0.224-0.557,0.444-1.337,0.778-2.229l2.563-7.021h2.007l-4.347,11.59L702.547,115.395L702.547,115.395z"/>
	<path fill="#A2AD00" d="M718.37,111.716l2.007,0.223c-0.334,1.226-0.893,2.118-1.783,2.786c-0.894,0.669-2.006,1.003-3.345,1.003
		c-1.672,0-3.009-0.557-4.012-1.56c-1.004-1.003-1.449-2.452-1.449-4.346c0-1.895,0.445-3.455,1.449-4.569
		c1.003-1.115,2.34-1.56,3.9-1.56c1.56,0,2.786,0.557,3.789,1.56c1.002,1.002,1.447,2.563,1.447,4.458c0,0.111,0,0.334,0,0.557
		h-8.581c0.11,1.226,0.445,2.229,1.113,2.897c0.669,0.669,1.449,1.003,2.452,1.003c0.668,0,1.338-0.223,1.896-0.557
		C717.815,113.276,718.034,112.497,718.37,111.716z M711.906,108.484h6.465c-0.11-1.003-0.336-1.671-0.779-2.229
		c-0.669-0.779-1.448-1.114-2.451-1.114c-0.894,0-1.672,0.335-2.229,0.892C712.354,106.59,712.02,107.481,711.906,108.484z"/>
	<path fill="#A2AD00" d="M728.178,111.939l1.896-0.334c0.11,0.78,0.444,1.337,0.893,1.783c0.443,0.446,1.226,0.669,2.116,0.669
		c0.894,0,1.562-0.223,2.008-0.557c0.443-0.334,0.668-0.78,0.668-1.337c0-0.446-0.225-0.781-0.56-1.004
		c-0.223-0.222-0.891-0.445-2.005-0.668c-1.449-0.334-2.452-0.669-3.01-0.892c-0.557-0.223-1.003-0.669-1.227-1.115
		c-0.224-0.446-0.444-1.003-0.444-1.56c0-0.557,0.108-1.003,0.334-1.448c0.223-0.446,0.557-0.78,1.003-1.115
		c0.334-0.223,0.668-0.446,1.226-0.557c0.56-0.111,1.114-0.223,1.673-0.223c0.892,0,1.673,0.112,2.341,0.446
		c0.669,0.334,1.227,0.669,1.561,1.114c0.334,0.446,0.558,1.003,0.668,1.783l-1.894,0.223c-0.112-0.557-0.335-1.114-0.78-1.449
		c-0.446-0.334-1.004-0.445-1.784-0.445c-0.891,0-1.56,0.111-1.894,0.445c-0.335,0.335-0.559,0.669-0.559,1.003
		c0,0.223,0.11,0.446,0.224,0.669c0.11,0.223,0.444,0.334,0.778,0.557c0.226,0.111,0.78,0.223,1.784,0.446
		c1.336,0.334,2.34,0.668,2.896,0.892c0.558,0.223,1.004,0.557,1.338,1.003s0.445,1.003,0.445,1.671c0,0.669-0.225,1.226-0.56,1.895
		c-0.334,0.668-0.892,1.003-1.672,1.337c-0.779,0.334-1.56,0.446-2.45,0.446c-1.45,0-2.676-0.334-3.456-0.892
		C728.956,114.168,728.402,113.166,728.178,111.939z"/>
	<path fill="#A2AD00" d="M740.103,115.395V99.458h2.006v15.937H740.103z"/>
	<path fill="#A2AD00" d="M744.337,109.6c0-2.118,0.558-3.678,1.781-4.792c1.003-0.892,2.229-1.337,3.679-1.337
		c1.561,0,2.896,0.557,3.898,1.56c1.004,1.003,1.563,2.452,1.563,4.347c0,1.448-0.225,2.674-0.668,3.454
		c-0.446,0.78-1.114,1.561-1.896,2.006c-0.782,0.445-1.784,0.668-2.786,0.668c-1.672,0-2.896-0.557-3.898-1.561
		C745.005,112.941,744.337,111.605,744.337,109.6z M746.343,109.6c0,1.449,0.334,2.563,1.004,3.343
		c0.668,0.78,1.448,1.115,2.45,1.115c1.004,0,1.783-0.334,2.452-1.115c0.669-0.779,1.004-1.894,1.004-3.343
		c0-1.449-0.335-2.563-1.004-3.232s-1.448-1.114-2.452-1.114c-1.002,0-1.782,0.334-2.45,1.114
		C746.677,107.147,746.343,108.15,746.343,109.6z"/>
	<path fill="#A2AD00" d="M759.605,115.395l-3.566-11.59h2.008l1.895,6.687l0.669,2.451c0-0.111,0.225-0.891,0.559-2.34l1.895-6.797
		h2.006l1.783,6.687l0.557,2.229l0.67-2.229l2.007-6.687h1.896l-3.566,11.59h-2.006l-1.895-6.91l-0.446-2.006l-2.34,8.916
		L759.605,115.395L759.605,115.395z"/>
	<path fill="#A2AD00" d="M773.533,115.395V99.458h2.006v15.937H773.533z"/>
	<path fill="#A2AD00" d="M778.438,119.852l-0.223-1.895c0.444,0.111,0.778,0.223,1.112,0.223c0.446,0,0.78-0.112,1.003-0.223
		c0.226-0.112,0.446-0.334,0.669-0.557c0.111-0.223,0.337-0.669,0.559-1.449c0-0.111,0.112-0.223,0.224-0.446l-4.346-11.59h2.116
		l2.452,6.686c0.334,0.892,0.558,1.783,0.892,2.675c0.223-0.892,0.446-1.783,0.78-2.675l2.452-6.686h2.005l-4.349,11.701
		c-0.442,1.226-0.891,2.118-1.112,2.675c-0.334,0.668-0.779,1.114-1.228,1.449c-0.443,0.334-1.003,0.445-1.561,0.445
		C779.327,120.074,778.884,120.074,778.438,119.852z"/>
</g>
<g enable-background="new    ">
	<path fill="#A2AD00" d="M743.111,79.064c1.784,1.895,3.232,3.343,4.57,4.346c1.225,1.003,2.451,1.783,3.677,2.229v0.892
		c-1.337,0.668-2.563,1.449-3.789,2.452c-1.226,1.002-2.674,2.452-4.346,4.346h-1.563c1.228-2.675,2.563-4.681,3.9-6.129h-31.538
		v-2.006h31.538c-1.003-1.226-1.672-2.229-2.118-2.897c-0.442-0.669-1.002-1.672-1.781-3.232L743.111,79.064L743.111,79.064z"/>
</g>
<polygon fill="#E37222" stroke="#1D65AF" stroke-width="3" stroke-linecap="round" stroke-linejoin="round" stroke-miterlimit="10" points="
	270.713,64.688 256.559,61.123 245.528,70.707 244.524,56.106 232.042,48.642 245.638,43.292 248.871,29.027 258.231,40.282 
	272.719,38.945 264.918,51.315 "/>
<polygon fill="#E37222" stroke="#1D65AF" stroke-width="3" stroke-linecap="round" stroke-linejoin="round" stroke-miterlimit="10" points="
	342.367,237.377 317.295,206.73 277.956,209.963 299.353,176.752 284.086,140.312 322.31,150.451 352.176,124.598 354.405,164.158 
	388.171,184.553 351.395,198.93 "/>
<polygon fill="#E37222" stroke="#1D65AF" stroke-width="3" stroke-linecap="round" stroke-linejoin="round" stroke-miterlimit="10" points="
	775.764,64.688 761.611,61.123 750.575,70.707 749.687,56.106 737.094,48.642 750.69,43.292 753.921,29.027 763.281,40.282 
	777.77,38.945 769.969,51.315 "/>
<polygon fill="#E37222" stroke="#1D65AF" stroke-width="3" stroke-linecap="round" stroke-linejoin="round" stroke-miterlimit="10" points="
	1022.826,237.377 997.865,206.73 958.528,209.963 979.812,176.752 964.544,140.312 1002.769,150.451 1032.744,124.598 
	1034.976,164.158 1068.74,184.553 1031.856,198.93 "/>
<polygon fill="#D6B096" stroke="#688CAD" stroke-width="3" stroke-linecap="round" stroke-linejoin="round" stroke-miterlimit="10" points="
	723.387,64.688 709.234,61.123 698.198,70.707 697.309,56.106 684.716,48.642 698.313,43.292 701.543,29.027 710.906,40.282 
	725.393,38.945 717.591,51.315 "/>
<polygon fill="#D6B096" stroke="#688CAD" stroke-width="3" stroke-linecap="round" stroke-linejoin="round" stroke-miterlimit="10" points="
	795.043,237.377 770.077,206.73 730.63,209.963 752.027,176.752 736.76,140.312 774.984,150.451 804.85,124.598 807.19,164.158 
	840.955,184.553 804.07,198.93 "/>
<g>
	<path d="M370.797,336.381l3.573-0.313c0.169,1.433,0.563,2.606,1.183,3.524c0.618,0.918,1.579,1.66,2.881,2.228
		c1.302,0.565,2.767,0.85,4.395,0.85c1.445,0,2.722-0.215,3.828-0.645c1.106-0.431,1.931-1.02,2.472-1.769
		c0.54-0.749,0.811-1.565,0.811-2.451c0-0.897-0.261-1.683-0.781-2.354c-0.521-0.67-1.38-1.232-2.578-1.688
		c-0.769-0.3-2.468-0.765-5.098-1.396c-2.63-0.633-4.473-1.229-5.527-1.787c-1.366-0.717-2.386-1.604-3.057-2.666
		c-0.671-1.063-1.006-2.249-1.006-3.564c0-1.445,0.41-2.796,1.229-4.053c0.82-1.258,2.019-2.21,3.595-2.861
		c1.575-0.65,3.327-0.977,5.254-0.977c2.122,0,3.994,0.342,5.615,1.025c1.62,0.683,2.867,1.688,3.739,3.018
		c0.872,1.328,1.341,2.832,1.406,4.512l-3.633,0.273c-0.195-1.811-0.856-3.178-1.982-4.103s-2.79-1.387-4.989-1.387
		c-2.292,0-3.963,0.42-5.011,1.26c-1.048,0.841-1.571,1.853-1.571,3.037c0,1.028,0.37,1.875,1.112,2.539
		c0.729,0.664,2.633,1.345,5.713,2.041c3.079,0.696,5.192,1.306,6.339,1.826c1.667,0.769,2.896,1.741,3.69,2.92
		s1.191,2.536,1.191,4.071c0,1.523-0.438,2.959-1.31,4.308c-0.873,1.349-2.126,2.396-3.76,3.146
		c-1.634,0.748-3.474,1.123-5.518,1.123c-2.592,0-4.764-0.379-6.515-1.134s-3.125-1.892-4.121-3.407
		C371.371,340.011,370.849,338.295,370.797,336.381z"/>
	<path d="M405.991,342.436l0.509,3.105c-0.99,0.207-1.875,0.313-2.656,0.313c-1.276,0-2.267-0.201-2.969-0.605
		c-0.703-0.402-1.198-0.935-1.484-1.592c-0.287-0.656-0.43-2.041-0.43-4.149v-11.935h-2.578v-2.733h2.578v-5.138l3.495-2.108v7.246
		h3.535v2.733h-3.535v12.129c0,1.004,0.063,1.647,0.187,1.935c0.124,0.286,0.325,0.515,0.604,0.685
		c0.28,0.168,0.681,0.254,1.201,0.254C404.84,342.572,405.354,342.527,405.991,342.436z"/>
	<path d="M422.965,343.021c-1.303,1.106-2.557,1.889-3.761,2.344c-1.204,0.457-2.497,0.685-3.877,0.685
		c-2.278,0-4.029-0.558-5.254-1.67c-1.224-1.113-1.836-2.536-1.836-4.269c0-1.016,0.231-1.942,0.693-2.783
		c0.462-0.84,1.066-1.514,1.815-2.021c0.749-0.508,1.593-0.892,2.529-1.151c0.69-0.184,1.731-0.358,3.125-0.527
		c2.838-0.34,4.928-0.742,6.271-1.211c0.013-0.481,0.02-0.788,0.02-0.918c0-1.434-0.332-2.441-0.996-3.027
		c-0.897-0.794-2.232-1.191-4.004-1.191c-1.654,0-2.875,0.291-3.662,0.869c-0.788,0.579-1.371,1.604-1.748,3.076l-3.438-0.469
		c0.313-1.473,0.827-2.659,1.543-3.564c0.716-0.904,1.751-1.602,3.104-2.09c1.354-0.488,2.923-0.732,4.707-0.732
		c1.771,0,3.209,0.209,4.316,0.625c1.105,0.418,1.92,0.94,2.44,1.572c0.521,0.633,0.886,1.43,1.095,2.394
		c0.117,0.599,0.176,1.68,0.176,3.241v4.688c0,3.269,0.075,5.335,0.225,6.201s0.446,1.696,0.89,2.489h-3.672
		C423.303,344.851,423.069,343.998,422.965,343.021z M422.672,335.17c-1.276,0.521-3.19,0.964-5.742,1.328
		c-1.445,0.207-2.468,0.441-3.066,0.703c-0.599,0.261-1.062,0.642-1.387,1.143c-0.326,0.501-0.488,1.059-0.488,1.67
		c0,0.938,0.354,1.719,1.064,2.344c0.709,0.625,1.748,0.938,3.115,0.938c1.354,0,2.559-0.296,3.612-0.89
		c1.055-0.593,1.829-1.402,2.324-2.432c0.377-0.794,0.566-1.966,0.566-3.516L422.672,335.17L422.672,335.17z"/>
	<path d="M431.52,353.568l-0.391-3.301c0.768,0.208,1.438,0.313,2.012,0.313c0.781,0,1.406-0.129,1.875-0.391
		c0.469-0.261,0.853-0.625,1.152-1.094c0.221-0.352,0.578-1.225,1.073-2.617c0.065-0.195,0.169-0.48,0.313-0.859l-7.871-20.78h3.789
		l4.315,12.012c0.561,1.522,1.062,3.125,1.505,4.806c0.402-1.615,0.885-3.19,1.444-4.728l4.435-12.09h3.516l-7.891,21.094
		c-0.848,2.278-1.504,3.849-1.974,4.707c-0.625,1.159-1.341,2.009-2.147,2.549c-0.809,0.54-1.771,0.812-2.892,0.812
		C433.108,353.998,432.353,353.854,431.52,353.568z"/>
</g>
<g>
	<path d="M840.969,345.58v-28.633h5.703l6.776,20.272c0.625,1.888,1.081,3.301,1.367,4.237c0.325-1.041,0.833-2.57,1.523-4.59
		l6.854-19.922h5.098v28.633h-3.651v-23.965l-8.32,23.965h-3.418l-8.281-24.375v24.375h-3.651V345.58z"/>
	<path d="M872.649,335.209c0-3.842,1.067-6.688,3.203-8.535c1.784-1.536,3.958-2.305,6.523-2.305c2.852,0,5.183,0.935,6.991,2.803
		c1.81,1.867,2.716,4.449,2.716,7.744c0,2.669-0.4,4.769-1.201,6.299c-0.801,1.529-1.967,2.718-3.496,3.564
		c-1.53,0.846-3.2,1.27-5.01,1.27c-2.903,0-5.251-0.932-7.041-2.793C873.544,341.394,872.649,338.712,872.649,335.209z
		 M876.262,335.209c0,2.656,0.579,4.646,1.738,5.967c1.158,1.32,2.616,1.982,4.375,1.982c1.744,0,3.195-0.664,4.354-1.992
		s1.738-3.354,1.738-6.074c0-2.564-0.583-4.51-1.748-5.83s-2.614-1.982-4.347-1.982c-1.758,0-3.216,0.657-4.375,1.974
		C876.84,330.568,876.262,332.553,876.262,335.209z"/>
	<path d="M901.965,345.58l-7.892-20.742h3.711l4.453,12.422c0.481,1.341,0.925,2.734,1.328,4.18c0.313-1.094,0.749-2.408,1.31-3.945
		l4.608-12.655h3.613l-7.853,20.741H901.965L901.965,345.58z"/>
	<path d="M930.403,338.9l3.633,0.449c-0.572,2.122-1.634,3.77-3.184,4.941c-1.55,1.171-3.528,1.758-5.938,1.758
		c-3.033,0-5.438-0.936-7.217-2.803c-1.777-1.868-2.666-4.489-2.666-7.861c0-3.489,0.898-6.198,2.695-8.125s4.128-2.891,6.992-2.891
		c2.772,0,5.039,0.943,6.797,2.832c1.758,1.888,2.637,4.543,2.637,7.969c0,0.208-0.007,0.521-0.02,0.938h-15.47
		c0.131,2.278,0.774,4.023,1.935,5.234s2.604,1.816,4.336,1.816c1.289,0,2.39-0.34,3.301-1.017S929.867,340.385,930.403,338.9z
		 M918.86,333.217h11.582c-0.156-1.745-0.599-3.055-1.328-3.926c-1.12-1.354-2.57-2.031-4.354-2.031
		c-1.614,0-2.973,0.54-4.072,1.621C919.586,329.962,918.977,331.408,918.86,333.217z"/>
	<path d="M938.448,345.58v-20.742h3.146v2.91c0.65-1.017,1.517-1.834,2.598-2.451c1.081-0.618,2.313-0.928,3.691-0.928
		c1.536,0,2.796,0.318,3.778,0.957c0.983,0.638,1.678,1.529,2.08,2.676c1.642-2.422,3.776-3.633,6.406-3.633
		c2.058,0,3.64,0.568,4.746,1.709c1.105,1.14,1.66,2.894,1.66,5.264v14.238h-3.496v-13.066c0-1.406-0.114-2.419-0.342-3.037
		c-0.229-0.617-0.643-1.115-1.24-1.494c-0.598-0.378-1.302-0.565-2.109-0.565c-1.458,0-2.669,0.485-3.633,1.454
		c-0.964,0.971-1.445,2.522-1.445,4.658v12.051h-3.516v-13.477c0-1.563-0.286-2.734-0.859-3.516
		c-0.572-0.782-1.511-1.172-2.813-1.172c-0.989,0-1.904,0.261-2.744,0.781c-0.84,0.52-1.448,1.281-1.826,2.285
		c-0.378,1.002-0.565,2.447-0.565,4.336v10.762H938.448L938.448,345.58z"/>
	<path d="M985.969,338.9l3.633,0.449c-0.573,2.122-1.634,3.77-3.184,4.941c-1.551,1.171-3.528,1.758-5.938,1.758
		c-3.034,0-5.439-0.936-7.217-2.803c-1.778-1.868-2.666-4.489-2.666-7.861c0-3.489,0.897-6.198,2.694-8.125
		c1.798-1.927,4.129-2.891,6.992-2.891c2.773,0,5.039,0.943,6.797,2.832c1.759,1.888,2.638,4.543,2.638,7.969
		c0,0.208-0.007,0.521-0.021,0.938h-15.469c0.13,2.278,0.774,4.023,1.934,5.234c1.16,1.211,2.604,1.816,4.336,1.816
		c1.289,0,2.391-0.34,3.302-1.017S985.435,340.385,985.969,338.9z M974.426,333.217h11.582c-0.156-1.745-0.6-3.055-1.328-3.926
		c-1.12-1.354-2.571-2.031-4.355-2.031c-1.613,0-2.972,0.54-4.071,1.621C975.153,329.962,974.543,331.408,974.426,333.217z"/>
	<path d="M994.016,345.58v-20.742h3.164v2.949c1.522-2.278,3.724-3.418,6.602-3.418c1.25,0,2.399,0.225,3.447,0.674
		s1.833,1.037,2.354,1.768c0.521,0.73,0.887,1.596,1.095,2.598c0.13,0.651,0.194,1.791,0.194,3.418v12.754h-3.516v-12.616
		c0-1.433-0.137-2.503-0.41-3.213c-0.272-0.71-0.759-1.276-1.455-1.699c-0.695-0.423-1.514-0.636-2.451-0.636
		c-1.496,0-2.789,0.477-3.877,1.427c-1.087,0.95-1.631,2.754-1.631,5.41v11.327H994.016L994.016,345.58z"/>
	<path d="M1023.938,342.436l0.508,3.105c-0.988,0.207-1.875,0.313-2.656,0.313c-1.275,0-2.266-0.201-2.969-0.605
		c-0.703-0.402-1.197-0.935-1.483-1.592c-0.286-0.656-0.431-2.041-0.431-4.149v-11.935h-2.578v-2.733h2.578v-5.138l3.496-2.108
		v7.246h3.535v2.733h-3.535v12.129c0,1.004,0.063,1.647,0.187,1.935s0.324,0.515,0.604,0.685c0.28,0.168,0.682,0.254,1.201,0.254
		C1022.784,342.572,1023.3,342.527,1023.938,342.436z"/>
</g>
<g>
	<g>
		<path d="M780.227,342.796c-2.861-3.136-5.383-5.521-7.427-7.154c-2.111-1.636-4.088-2.86-5.929-3.61v-1.433
			c2.113-1.022,4.227-2.384,6.201-3.95c1.977-1.636,4.43-3.953,7.224-7.087h2.452c-2.044,4.36-4.156,7.699-6.404,10.015h51.646
			v3.272h-51.646c1.635,2.111,2.793,3.679,3.407,4.634c0.611,0.952,1.635,2.793,2.861,5.313H780.227z"/>
	</g>
</g>
</svg>
